<?xml version="1.0" encoding="utf-8"?>
<!-- Generator: Adobe Illustrator 21.0.0, SVG Export Plug-In . SVG Version: 6.00 Build 0)  -->
<svg version="1.1" id="Layer_1" xmlns="http://www.w3.org/2000/svg" xmlns:xlink="http://www.w3.org/1999/xlink" x="0px" y="0px"
	 viewBox="0 0 21.8 21.2" enable-background="new 0 0 21.8 21.2" xml:space="preserve">
<g>
	<g>
		<g>
			
				<linearGradient id="SVGID_1_" gradientUnits="userSpaceOnUse" x1="801.4399" y1="118.8693" x2="798.8765" y2="126.5262" gradientTransform="matrix(-0.9528 -0.3036 -0.3036 0.9528 809.1431 142.9047)">
				<stop  offset="0" style="stop-color:#FFFFFF"/>
				<stop  offset="1" style="stop-color:#CB90A7"/>
			</linearGradient>
			<path fill="url(#SVGID_1_)" d="M7.7,12.6c0.9-0.4,1.9-0.8,2.8-0.5c0.3,0.1,0.6,0.3,0.9,0.3c0.6,0,1-0.5,1.3-0.9
				c0.3,0.1,0.5,0.2,0.7,0.4c-0.4,0.7-0.7,1.4-0.7,2.2c0,0.6,0.4,1.2,0.4,1.9c0,0.4-0.1,0.7-0.2,1.1c-0.4,1.2-1.4,2.2-2.5,2.7
				c-0.7,0.3-1.4,0.5-2.1,0.5c-0.7,0-1.5-0.3-2-0.8c-0.6-0.6-0.9-1.5-1-2.3c0-0.9,0.2-1.7,0.4-2.5c0.1-0.3,0.2-0.6,0.3-0.8
				C6.5,13.3,7.1,12.9,7.7,12.6z"/>
			
				<linearGradient id="SVGID_2_" gradientUnits="userSpaceOnUse" x1="-22.5698" y1="125.5525" x2="-19.4832" y2="114.9209" gradientTransform="matrix(0.9528 0.3036 -0.3036 0.9528 66.6432 -93.4682)">
				<stop  offset="0" style="stop-color:#DD6D80"/>
				<stop  offset="0.2505" style="stop-color:#F0AFBA"/>
				<stop  offset="0.3716" style="stop-color:#FAD1D8"/>
				<stop  offset="0.4475" style="stop-color:#F8CBD3"/>
				<stop  offset="0.5465" style="stop-color:#F4BBC5"/>
				<stop  offset="0.6585" style="stop-color:#EDA0AD"/>
				<stop  offset="0.7799" style="stop-color:#E37A8C"/>
				<stop  offset="0.9075" style="stop-color:#D64A62"/>
				<stop  offset="1" style="stop-color:#CB2340"/>
			</linearGradient>
			<path fill="url(#SVGID_2_)" d="M7.8,12.4c0.9-0.4,1.9-0.8,2.8-0.5c0.3,0.1,0.6,0.3,0.9,0.3c0.6,0,1-0.5,1.3-0.9
				c0.3,0.1,0.5,0.2,0.7,0.4c-0.4,0.7-0.7,1.4-0.7,2.2c0,0.6,0.4,1.2,0.4,1.9c0,0.4-0.1,0.7-0.2,1.1c-0.4,1.2-1.4,2.2-2.5,2.7
				c-0.7,0.3-1.4,0.5-2.1,0.5c-0.7,0-1.5-0.3-2-0.8c-0.6-0.6-0.9-1.5-1-2.3c0-0.9,0.2-1.7,0.4-2.5c0.1-0.3,0.2-0.6,0.3-0.8
				C6.6,13.1,7.2,12.7,7.8,12.4z"/>
			<path fill="#D29FB3" d="M13,12.4c0.6,0.1,1.2,0.3,1.7,0.1c0.3-0.1,0.5-0.2,0.8-0.3c1.5-0.6,3.3,0.1,4.4,1.3
				c0.2,0.2,0.3,0.3,0.4,0.5c0.4,0.7,0.5,1.5,0.2,2.3c-0.2,0.8-0.6,1.5-1.1,2.1c-0.7,0.9-1.7,1.8-2.9,1.8c-0.4,0-0.8-0.1-1-0.4
				c-0.2-0.3-0.2-0.6-0.4-0.9c-0.1-0.4-0.4-0.7-0.6-1c-0.8-1.1-1.2-2.6-0.7-3.9c0.1-0.3,0.2-0.6,0.1-0.8c-0.3-0.4-1.1-0.2-1.3-0.7
				C12.7,12.4,12.9,12.3,13,12.4z"/>
			<linearGradient id="SVGID_3_" gradientUnits="userSpaceOnUse" x1="19.7969" y1="18.3016" x2="13.0419" y2="12.391">
				<stop  offset="0" style="stop-color:#DD6D80"/>
				<stop  offset="0.2505" style="stop-color:#F0AFBA"/>
				<stop  offset="0.3716" style="stop-color:#FAD1D8"/>
				<stop  offset="0.4475" style="stop-color:#F8CBD3"/>
				<stop  offset="0.5465" style="stop-color:#F4BBC5"/>
				<stop  offset="0.6585" style="stop-color:#EDA0AD"/>
				<stop  offset="0.7799" style="stop-color:#E37A8C"/>
				<stop  offset="0.9075" style="stop-color:#D64A62"/>
				<stop  offset="1" style="stop-color:#CB2340"/>
			</linearGradient>
			<path fill="url(#SVGID_3_)" d="M13,12.2c0.6,0.1,1.2,0.3,1.7,0.1c0.3-0.1,0.5-0.2,0.8-0.3c1.5-0.6,3.3,0.1,4.4,1.3
				c0.2,0.2,0.3,0.3,0.4,0.5c0.4,0.7,0.5,1.5,0.2,2.3c-0.2,0.8-0.6,1.5-1.1,2.1c-0.7,0.9-1.7,1.8-2.9,1.8c-0.4,0-0.8-0.1-1-0.4
				c-0.2-0.3-0.2-0.6-0.4-0.9c-0.1-0.4-0.4-0.7-0.6-1c-0.8-1.1-1.2-2.6-0.7-3.9c0.1-0.3,0.2-0.6,0.1-0.8c-0.3-0.4-1.1-0.2-1.3-0.7
				C12.7,12.2,12.9,12.2,13,12.2z"/>
			
				<linearGradient id="SVGID_4_" gradientUnits="userSpaceOnUse" x1="765.4017" y1="9.1216" x2="758.3618" y2="12.1387" gradientTransform="matrix(-1 0 0 1 779.2227 0)">
				<stop  offset="0" style="stop-color:#FFFFFF"/>
				<stop  offset="1" style="stop-color:#CB90A7"/>
			</linearGradient>
			<path fill="url(#SVGID_4_)" d="M13.4,9.6c0-0.5,0.1-1,0.4-1.3c0.2-0.2,0.4-0.3,0.6-0.4c1.5-0.6,3.1,0.4,4.6,0.2
				C19.4,8,19.8,7.9,20.1,8c0.5,0.1,0.8,0.6,1,1.1c0.2,0.6,0.3,1.4,0.1,2c-0.2,0.7-0.7,1.2-1.4,1.4c-0.3,0.1-0.6,0.1-1,0.1
				c-1.3-0.1-2.7-0.5-3.9-0.1c-0.3,0.1-0.6,0.3-0.9,0.3c-0.3,0.1-0.7,0-0.9-0.3c-0.2-0.3-0.1-0.8,0-1.2
				C13.3,10.8,13.3,10.2,13.4,9.6z"/>
			<linearGradient id="SVGID_5_" gradientUnits="userSpaceOnUse" x1="20.7487" y1="7.8817" x2="11.818" y2="13.1752">
				<stop  offset="0" style="stop-color:#FFFFFF"/>
				<stop  offset="0.1571" style="stop-color:#F9CBD3"/>
				<stop  offset="0.3716" style="stop-color:#FAD1D8"/>
				<stop  offset="0.4475" style="stop-color:#F8CBD3"/>
				<stop  offset="0.5465" style="stop-color:#F4BBC5"/>
				<stop  offset="0.6585" style="stop-color:#EDA0AD"/>
				<stop  offset="0.7799" style="stop-color:#E37A8C"/>
				<stop  offset="0.9075" style="stop-color:#D64A62"/>
				<stop  offset="1" style="stop-color:#CB2340"/>
			</linearGradient>
			<path fill="url(#SVGID_5_)" d="M13.4,9.4c0-0.5,0.1-1,0.4-1.3c0.2-0.2,0.4-0.3,0.6-0.4c1.5-0.6,3.1,0.4,4.6,0.2
				c0.4-0.1,0.8-0.2,1.1-0.1c0.5,0.1,0.8,0.6,1,1.1c0.2,0.6,0.3,1.4,0.1,2c-0.2,0.7-0.7,1.2-1.4,1.4c-0.3,0.1-0.6,0.1-1,0.1
				c-1.3-0.1-2.7-0.5-3.9-0.1c-0.3,0.1-0.6,0.3-0.9,0.3c-0.3,0.1-0.7,0-0.9-0.3c-0.2-0.3-0.1-0.8,0-1.2C13.3,10.6,13.3,10,13.4,9.4z
				"/>
			
				<linearGradient id="SVGID_6_" gradientUnits="userSpaceOnUse" x1="768.3752" y1="1.8979" x2="769.4633" y2="12.0536" gradientTransform="matrix(-1 0 0 1 779.2227 0)">
				<stop  offset="0" style="stop-color:#FFFFFF"/>
				<stop  offset="1" style="stop-color:#CB2340"/>
			</linearGradient>
			<path fill="url(#SVGID_6_)" d="M8,1.1C8.6,0.8,9.3,0.8,10,1c0.7,0.1,1.4,0.4,2,0.8c0.7,0.5,1.1,1.3,1.5,2c0.5,1.1,1,2.5,0.6,3.7
				c-0.3,1-1.1,1.8-1,2.8c0,0.4,0.2,0.7,0.2,1c0,0.4-0.1,0.8-0.4,0.9c-0.2,0.1-0.4,0.1-0.5,0c-0.2-0.1-0.3-0.4-0.4-0.7
				c-0.5-1.2-1.5-2.3-2.7-2.8C9,8.6,8.6,8.5,8.4,8.3c-0.5-0.3-0.8-0.8-1-1.3C6.7,5.7,6.6,4.1,7,2.6C7.2,2,7.5,1.4,8,1.1z"/>
			
				<linearGradient id="SVGID_7_" gradientUnits="userSpaceOnUse" x1="768.3752" y1="1.7137" x2="769.4634" y2="11.8695" gradientTransform="matrix(-1 0 0 1 779.2227 0)">
				<stop  offset="0" style="stop-color:#FFFFFF"/>
				<stop  offset="0.1571" style="stop-color:#F9CBD3"/>
				<stop  offset="0.3716" style="stop-color:#FAD1D8"/>
				<stop  offset="0.4475" style="stop-color:#F8CBD3"/>
				<stop  offset="0.5465" style="stop-color:#F4BBC5"/>
				<stop  offset="0.6585" style="stop-color:#EDA0AD"/>
				<stop  offset="0.7799" style="stop-color:#E37A8C"/>
				<stop  offset="0.9075" style="stop-color:#D64A62"/>
				<stop  offset="1" style="stop-color:#CB2340"/>
			</linearGradient>
			<path fill="url(#SVGID_7_)" d="M8,0.9C8.6,0.6,9.3,0.6,10,0.8c0.7,0.1,1.4,0.4,2,0.8c0.7,0.5,1.1,1.3,1.5,2
				c0.5,1.1,1,2.5,0.6,3.7c-0.3,1-1.1,1.8-1,2.8c0,0.4,0.2,0.7,0.2,1c0,0.4-0.1,0.8-0.4,0.9c-0.2,0.1-0.4,0.1-0.5,0
				c-0.2-0.1-0.3-0.4-0.4-0.7c-0.5-1.2-1.5-2.3-2.7-2.8C9,8.5,8.6,8.3,8.4,8.2c-0.5-0.3-0.8-0.8-1-1.3C6.7,5.5,6.6,3.9,7,2.5
				C7.2,1.9,7.5,1.2,8,0.9z"/>
			
				<linearGradient id="SVGID_8_" gradientUnits="userSpaceOnUse" x1="768.1696" y1="8.7184" x2="776.7929" y2="12.8608" gradientTransform="matrix(-1 0 0 1 779.2227 0)">
				<stop  offset="0" style="stop-color:#FFFFFF"/>
				<stop  offset="1" style="stop-color:#CB90A7"/>
			</linearGradient>
			<path fill="url(#SVGID_8_)" d="M1.8,7.9C3,7.5,4.3,7.3,5.6,7.4C6.8,7.5,8.1,8,9,8.9c0.7,0.7,1.1,1.5,1.8,2.2
				c0.5,0.4,1,0.7,1.6,0.9c0.2,0.1,0.4,0.1,0.6,0.2c0.2,0.1,0.3,0.3,0.3,0.5c0,0.3-0.3,0.4-0.5,0.5c-0.3,0-0.5,0-0.7-0.1
				c-0.7-0.3-1.3-0.6-2-0.7c-0.8-0.1-1.6,0-2.4,0.1c-1.4,0.1-2.7-0.3-4.1-0.6c-0.8-0.2-1.7-0.4-2.3-1.1c-0.4-0.4-0.6-1-0.7-1.6
				c0-0.1,0-0.3,0.1-0.4C0.9,8.2,1.3,8,1.8,7.9z"/>
			<linearGradient id="SVGID_9_" gradientUnits="userSpaceOnUse" x1="1.025" y1="8.1204" x2="12.3916" y2="12.0176">
				<stop  offset="0" style="stop-color:#FFFFFF"/>
				<stop  offset="0.1571" style="stop-color:#F9CBD3"/>
				<stop  offset="0.3716" style="stop-color:#FAD1D8"/>
				<stop  offset="0.4475" style="stop-color:#F8CBD3"/>
				<stop  offset="0.5465" style="stop-color:#F4BBC5"/>
				<stop  offset="0.6585" style="stop-color:#EDA0AD"/>
				<stop  offset="0.7799" style="stop-color:#E37A8C"/>
				<stop  offset="0.9075" style="stop-color:#D64A62"/>
				<stop  offset="1" style="stop-color:#CB2340"/>
			</linearGradient>
			<path fill="url(#SVGID_9_)" d="M1.8,7.7C3,7.3,4.3,7.1,5.6,7.2C6.8,7.3,8.1,7.8,9,8.7c0.7,0.7,1.1,1.5,1.8,2.2
				c0.5,0.4,1,0.7,1.6,0.9c0.2,0.1,0.4,0.1,0.6,0.2c0.2,0.1,0.3,0.3,0.3,0.5c0,0.3-0.3,0.4-0.5,0.5c-0.3,0-0.5,0-0.7-0.1
				c-0.7-0.3-1.3-0.6-2-0.7c-0.8-0.1-1.6,0-2.4,0.1c-1.4,0.1-2.7-0.3-4.1-0.6c-0.8-0.2-1.7-0.4-2.3-1.1c-0.4-0.4-0.6-1-0.7-1.6
				c0-0.1,0-0.3,0.1-0.4C0.9,8,1.3,7.8,1.8,7.7z"/>
		</g>
		<g>
			
				<linearGradient id="SVGID_10_" gradientUnits="userSpaceOnUse" x1="761.953" y1="9.5117" x2="766.2106" y2="11.5569" gradientTransform="matrix(-1 0 0 1 779.2227 0)">
				<stop  offset="0" style="stop-color:#FFFFFF"/>
				<stop  offset="0.1571" style="stop-color:#F9CBD3"/>
				<stop  offset="0.3716" style="stop-color:#FAD1D8"/>
				<stop  offset="0.4475" style="stop-color:#F8CBD3"/>
				<stop  offset="0.5465" style="stop-color:#F4BBC5"/>
				<stop  offset="0.6585" style="stop-color:#EDA0AD"/>
				<stop  offset="0.7799" style="stop-color:#E37A8C"/>
				<stop  offset="0.9075" style="stop-color:#D64A62"/>
				<stop  offset="1" style="stop-color:#CB2340"/>
			</linearGradient>
			<path opacity="0.4" fill="url(#SVGID_10_)" d="M13.9,10c0.3-0.8,1.1-1.3,1.9-1.2c-0.7,0.2-1.3,0.7-1.6,1.4c0.2-0.4,0.6-0.5,1-0.7
				c-0.1,0.1-0.3,0.2-0.4,0.3c0.3-0.3,0.8-0.4,1.2-0.4c0.5-0.1,1,0,1.4,0.2c-1,0.1-2,0.3-2.8,0.9c0.2-0.1,0.5-0.3,0.8-0.3
				c-0.2,0.1-0.5,0.3-0.7,0.4c0.7-0.2,1.4-0.2,2.1,0c0.1,0,0.3,0.1,0.4,0.3C16.8,11,16.4,11,15.9,11c-0.4,0-0.9,0.1-1.3,0.4
				c0.2-0.1,0.5-0.2,0.8-0.1c-0.2,0.1-0.4,0.1-0.6,0.2c0.3-0.1,0.6-0.1,0.9-0.1c0.3,0,0.6,0,0.8,0.2c-0.6,0.1-1.1,0.1-1.7,0.3
				c-0.4,0.1-0.8,0.4-1.2,0.6c-0.1,0-0.2,0.1-0.2,0.1c-0.1,0-0.2,0-0.2-0.1c0.3-0.3,0.4-0.8,0.4-1.2C13.8,10.8,13.8,10.4,13.9,10z"
				/>
			
				<linearGradient id="SVGID_11_" gradientUnits="userSpaceOnUse" x1="768.3109" y1="16.4192" x2="769.6135" y2="13.2803" gradientTransform="matrix(-1 0 0 1 779.2227 0)">
				<stop  offset="0" style="stop-color:#FFFFFF"/>
				<stop  offset="0.1571" style="stop-color:#F9CBD3"/>
				<stop  offset="0.3716" style="stop-color:#FAD1D8"/>
				<stop  offset="0.4475" style="stop-color:#F8CBD3"/>
				<stop  offset="0.5465" style="stop-color:#F4BBC5"/>
				<stop  offset="0.6585" style="stop-color:#EDA0AD"/>
				<stop  offset="0.7799" style="stop-color:#E37A8C"/>
				<stop  offset="0.9075" style="stop-color:#D64A62"/>
				<stop  offset="1" style="stop-color:#CB2340"/>
			</linearGradient>
			<path opacity="0.4" fill="url(#SVGID_11_)" d="M7.7,14.9c0.2-0.6,0.6-1.1,1.1-1.4c0.5-0.3,1.1-0.5,1.8-0.6c0.2,0,0.4-0.1,0.6-0.2
				c0.1-0.1,0.2-0.2,0.3-0.3c0.2-0.1,0.4,0,0.5,0.2c0,0.1,0,0.2,0,0.4c0,0.3,0,0.5,0.1,0.8c0.1,0.3,0.2,0.5,0.3,0.8
				c0.2,0.6,0.1,1.3-0.1,1.9c0.2-0.6,0.1-1.3-0.3-1.9c-0.2,0.2-0.2,0.4-0.3,0.7c-0.2,0.7-0.4,1.4-0.6,2c0-1,0.1-2.1,0.4-3.1
				c-0.2,0.1-0.3,0.3-0.4,0.5c0-0.2,0.1-0.4,0.2-0.6c-0.4,0.2-0.6,0.6-0.8,1c-0.3,0.6-0.6,1.3-0.9,2c0.1-0.6,0.3-1.2,0.5-1.8
				c0.2-0.4,0.4-0.9,0.4-1.4c-0.2,0.1-0.3,0.3-0.4,0.5c0.1-0.2,0.2-0.4,0.3-0.6c-0.2,0.1-0.5,0.3-0.7,0.5c0.1-0.2,0.2-0.3,0.3-0.5
				c-0.8,0.6-1.5,1.4-1.8,2.3c0.1-0.3,0.2-0.5,0.2-0.8c0.1-0.2,0.1-0.4,0.2-0.5c0.2-0.5,0.6-0.8,1-1.1c-0.4,0.1-0.7,0.3-1,0.5
				c0.1-0.2,0.2-0.3,0.4-0.4C8.4,14,7.9,14.4,7.7,14.9z"/>
			
				<linearGradient id="SVGID_12_" gradientUnits="userSpaceOnUse" x1="764.9107" y1="15.8533" x2="761.0229" y2="13.1333" gradientTransform="matrix(-1 0 0 1 779.2227 0)">
				<stop  offset="0" style="stop-color:#FFFFFF"/>
				<stop  offset="0.1571" style="stop-color:#F9CBD3"/>
				<stop  offset="0.3716" style="stop-color:#FAD1D8"/>
				<stop  offset="0.4475" style="stop-color:#F8CBD3"/>
				<stop  offset="0.5465" style="stop-color:#F4BBC5"/>
				<stop  offset="0.6585" style="stop-color:#EDA0AD"/>
				<stop  offset="0.7799" style="stop-color:#E37A8C"/>
				<stop  offset="0.9075" style="stop-color:#D64A62"/>
				<stop  offset="1" style="stop-color:#CB2340"/>
			</linearGradient>
			<path opacity="0.4" fill="url(#SVGID_12_)" d="M14.2,13.3c0-0.2-0.2-0.3-0.1-0.5c0.1-0.1,0.3-0.1,0.4-0.1c0.1,0,0.3,0.1,0.4,0.1
				c0.4,0,0.8-0.1,1.1-0.2c0.4-0.1,0.9-0.1,1.3,0c0.5,0.1,0.9,0.3,1.1,0.8c-0.1-0.1-0.2-0.2-0.4-0.2c0.2,0.1,0.3,0.3,0.4,0.4
				c0.2,0.3,0.4,0.7,0.6,1c-0.3-0.7-1-1.2-1.8-1.3c0.1,0.2,0.2,0.4,0.3,0.6c-0.1-0.1-0.3-0.2-0.4-0.3c0.1,0.2,0.2,0.3,0.4,0.4
				c0.1,0.1,0.3,0.2,0.4,0.3c0.1,0.1,0.1,0.2,0.1,0.3c0.2,0.3,0.4,0.6,0.4,0.9c-0.1-0.5-0.5-0.9-1-1.2c-0.4-0.3-1-0.5-1.5-0.7
				c0,0.2,0.1,0.3,0.3,0.4c-0.4-0.2-0.8-0.3-1.2-0.4c0.5,0.4,1.1,0.8,1.4,1.3c0.3,0.4,0.4,0.9,0.6,1.4c0.1,0.2,0.1,0.4,0.2,0.6
				c-0.1-0.2-0.2-0.4-0.2-0.6c0-0.1-0.1-0.1-0.1-0.2c0-0.1-0.1-0.1-0.1-0.2c-0.1-0.1-0.2-0.2-0.3-0.3c-0.1-0.2-0.3-0.3-0.5-0.3
				c0,0.1,0.1,0.2,0.1,0.3c-0.1-0.1-0.2-0.2-0.3-0.3c0.2,0.3,0.2,0.7,0.3,1.1c0,0.3,0.1,0.6,0.1,1c0-0.3-0.1-0.6-0.3-0.8
				c-0.2-0.3-0.4-0.5-0.7-0.6c0,0.2,0,0.4,0.1,0.6c-0.1-0.1-0.1-0.2-0.2-0.3c0.1,0.7,0.2,1.4,0.1,2c-0.1-0.7-0.2-1.5-0.6-2.1
				c-0.2-0.3-0.6-0.6-0.7-0.9C14,15.1,14,14.9,14,14.7c0-0.3,0-0.5,0.1-0.8C14.1,13.7,14.2,13.5,14.2,13.3z"/>
			
				<linearGradient id="SVGID_13_" gradientUnits="userSpaceOnUse" x1="770.5853" y1="5.439" x2="770.688" y2="5.7125" gradientTransform="matrix(-1 0 0 1 779.2227 0)">
				<stop  offset="0" style="stop-color:#FFFFFF"/>
				<stop  offset="0.1571" style="stop-color:#F9CBD3"/>
				<stop  offset="0.3716" style="stop-color:#FAD1D8"/>
				<stop  offset="0.4475" style="stop-color:#F8CBD3"/>
				<stop  offset="0.5465" style="stop-color:#F4BBC5"/>
				<stop  offset="0.6585" style="stop-color:#EDA0AD"/>
				<stop  offset="0.7799" style="stop-color:#E37A8C"/>
				<stop  offset="0.9075" style="stop-color:#D64A62"/>
				<stop  offset="1" style="stop-color:#CB2340"/>
			</linearGradient>
			<path opacity="0.4" fill="url(#SVGID_13_)" d="M8.6,5.8c0-0.1-0.1-0.2-0.1-0.4C8.6,5.5,8.6,5.6,8.6,5.8z"/>
			
				<linearGradient id="SVGID_14_" gradientUnits="userSpaceOnUse" x1="767.6741" y1="4.9645" x2="767.7695" y2="5.2187" gradientTransform="matrix(-1 0 0 1 779.2227 0)">
				<stop  offset="0" style="stop-color:#FFFFFF"/>
				<stop  offset="0.1571" style="stop-color:#F9CBD3"/>
				<stop  offset="0.3716" style="stop-color:#FAD1D8"/>
				<stop  offset="0.4475" style="stop-color:#F8CBD3"/>
				<stop  offset="0.5465" style="stop-color:#F4BBC5"/>
				<stop  offset="0.6585" style="stop-color:#EDA0AD"/>
				<stop  offset="0.7799" style="stop-color:#E37A8C"/>
				<stop  offset="0.9075" style="stop-color:#D64A62"/>
				<stop  offset="1" style="stop-color:#CB2340"/>
			</linearGradient>
			<path opacity="0.4" fill="url(#SVGID_14_)" d="M11.6,5.3c-0.1-0.1-0.2-0.3-0.3-0.4C11.5,5,11.6,5.2,11.6,5.3z"/>
			
				<linearGradient id="SVGID_15_" gradientUnits="userSpaceOnUse" x1="767.1401" y1="5.0237" x2="769.113" y2="10.2805" gradientTransform="matrix(-1 0 0 1 779.2227 0)">
				<stop  offset="0" style="stop-color:#FFFFFF"/>
				<stop  offset="0.1571" style="stop-color:#F9CBD3"/>
				<stop  offset="0.3716" style="stop-color:#FAD1D8"/>
				<stop  offset="0.4475" style="stop-color:#F8CBD3"/>
				<stop  offset="0.5465" style="stop-color:#F4BBC5"/>
				<stop  offset="0.6585" style="stop-color:#EDA0AD"/>
				<stop  offset="0.7799" style="stop-color:#E37A8C"/>
				<stop  offset="0.9075" style="stop-color:#D64A62"/>
				<stop  offset="1" style="stop-color:#CB2340"/>
			</linearGradient>
			<path opacity="0.4" fill="url(#SVGID_15_)" d="M9,7.9C8.9,7.8,8.9,7.7,8.8,7.5C9.1,7.8,9.4,8,9.7,8.1c-0.6-0.7-1-1.5-1.1-2.4
				c0.1,0.3,0.4,0.6,0.5,1c0.3,0.4,0.4,1,0.8,1.3c0-0.3-0.1-0.5-0.1-0.8c0.3,0.2,0.7,0.5,1,0.7C10.4,7.3,10,6.6,9.7,5.9
				c0.3,0.5,0.7,1,1.2,1.4c-0.1-0.2-0.1-0.3-0.2-0.5c0.5,0.5,0.9,1.1,1.3,1.6c-0.4-0.9-0.7-1.9-1.2-2.7c0.4,0.7,0.8,1.3,1.3,2
				c-0.1-0.3-0.2-0.5-0.2-0.8c0.2,0.3,0.4,0.7,0.5,1c0.1-0.5-0.1-1.1-0.2-1.6c-0.1-0.4-0.2-0.7-0.4-1c0.4,0.7,0.8,1.4,1,2.2
				c-0.1-0.2-0.1-0.4-0.1-0.6c0.1,0.3,0.2,0.6,0.3,1c0.4-0.7,0.5-1.5,0.3-2.3C13,5.4,13,5.2,13,5c0.3,0.7,0.4,1.5,0.4,2.3
				c0,0.2,0,0.4-0.1,0.6c-0.1,0.2-0.2,0.5-0.3,0.7c-0.4,0.7-0.4,1.6-0.1,2.3c0,0.1,0.1,0.2,0.1,0.4c0,0.1-0.1,0.3-0.2,0.3
				c-0.1,0-0.1,0-0.2-0.1c-0.3-0.2-0.4-0.6-0.6-1c-0.2-0.5-0.4-0.9-0.8-1.3C10.4,8.7,9.5,8.6,8.9,8C8.7,7.8,8.6,7.6,8.5,7.5l0,0
				C8.6,7.6,8.8,7.8,9,7.9z"/>
			
				<linearGradient id="SVGID_16_" gradientUnits="userSpaceOnUse" x1="770.8234" y1="7.1029" x2="770.9222" y2="7.3661" gradientTransform="matrix(-1 0 0 1 779.2227 0)">
				<stop  offset="0" style="stop-color:#FFFFFF"/>
				<stop  offset="0.1571" style="stop-color:#F9CBD3"/>
				<stop  offset="0.3716" style="stop-color:#FAD1D8"/>
				<stop  offset="0.4475" style="stop-color:#F8CBD3"/>
				<stop  offset="0.5465" style="stop-color:#F4BBC5"/>
				<stop  offset="0.6585" style="stop-color:#EDA0AD"/>
				<stop  offset="0.7799" style="stop-color:#E37A8C"/>
				<stop  offset="0.9075" style="stop-color:#D64A62"/>
				<stop  offset="1" style="stop-color:#CB2340"/>
			</linearGradient>
			<path opacity="0.4" fill="url(#SVGID_16_)" d="M8.5,7.5C8.4,7.3,8.3,7.2,8.2,7C8.3,7.2,8.4,7.3,8.5,7.5z"/>
			
				<linearGradient id="SVGID_17_" gradientUnits="userSpaceOnUse" x1="768.6909" y1="10.3149" x2="772.7546" y2="12.1406" gradientTransform="matrix(-1 0 0 1 779.2227 0)">
				<stop  offset="0" style="stop-color:#FFFFFF"/>
				<stop  offset="0.1571" style="stop-color:#F9CBD3"/>
				<stop  offset="0.3716" style="stop-color:#FAD1D8"/>
				<stop  offset="0.4475" style="stop-color:#F8CBD3"/>
				<stop  offset="0.5465" style="stop-color:#F4BBC5"/>
				<stop  offset="0.6585" style="stop-color:#EDA0AD"/>
				<stop  offset="0.7799" style="stop-color:#E37A8C"/>
				<stop  offset="0.9075" style="stop-color:#D64A62"/>
				<stop  offset="1" style="stop-color:#CB2340"/>
			</linearGradient>
			<path opacity="0.4" fill="url(#SVGID_17_)" d="M8.2,10.5C7.9,10.3,7.5,10,7.1,9.9C7.6,10,8,10.1,8.5,10.3C8.2,10.1,8,9.9,7.7,9.7
				C7.3,9.5,6.9,9.2,6.5,9c1,0.2,1.9,0.5,2.7,1c0.3,0.2,0.5,0.4,0.7,0.6c0.2,0.2,0.5,0.4,0.7,0.6c0.1,0.1,0.2,0.2,0.3,0.3
				c0.4,0.3,0.8,0.4,1.3,0.6c0.1,0,0.2,0.1,0.3,0.2c0.1,0.1,0.1,0.2,0,0.3c-0.1,0.1-0.2,0.1-0.3,0.1c-0.4,0-0.8-0.3-1.2-0.5
				c-0.5-0.3-1.1-0.4-1.7-0.5c-0.6-0.1-1.3,0-1.9,0c-0.7,0-1.4,0-2.1,0c0.5-0.1,1-0.2,1.5-0.2c-0.3-0.1-0.5-0.1-0.8-0.1
				c0.4,0,0.7,0,1.1,0c-0.6-0.3-1.4-0.1-2-0.4c0.8,0,1.5,0.1,2.3,0.2c-0.4-0.2-0.9-0.3-1.3-0.4c0.3,0,0.6,0.1,0.9,0.1
				c-0.7-0.3-1.4-0.5-2.1-0.6C6.1,10.1,7.2,10.2,8.2,10.5z"/>
		</g>
	</g>
	<g>
		<g>
			<g>
				<path fill="#CF334C" d="M11.9,11.6c0.1,0.2,0.1,0.3,0,0.4c-0.1,0.1-0.2,0-0.3-0.2c-0.1-0.1-0.1-0.3,0-0.4
					C11.7,11.4,11.8,11.5,11.9,11.6z"/>
				<path fill="#D23952" d="M11.7,11.3c0.1,0.1,0.1,0.4,0,0.4c-0.1,0-0.2,0-0.3-0.2c-0.1-0.2-0.1-0.3-0.1-0.4
					C11.4,11,11.6,11.1,11.7,11.3z"/>
				<path fill="#D53F58" d="M11.4,10.9c0.1,0.2,0.1,0.3,0.1,0.4c-0.1,0.1-0.3,0-0.4-0.2C11,11,11,10.8,11,10.8
					C11.1,10.7,11.3,10.8,11.4,10.9z"/>
				<path fill="#D8465E" d="M11.1,10.6c0.2,0.2,0.2,0.3,0.1,0.4c-0.1,0.1-0.3,0-0.4-0.1c-0.1-0.1-0.2-0.3-0.1-0.4
					C10.8,10.4,11,10.4,11.1,10.6z"/>
				<path fill="#DB4C63" d="M10.8,10.3c0.2,0.1,0.3,0.3,0.2,0.4c-0.1,0.1-0.3,0-0.4-0.1c-0.2-0.1-0.3-0.3-0.2-0.4
					C10.4,10.1,10.6,10.2,10.8,10.3z"/>
				
					<ellipse transform="matrix(0.567 -0.8237 0.8237 0.567 -3.9359 12.9315)" fill="#DE5269" cx="10.3" cy="10.2" rx="0.2" ry="0.4"/>
				<path fill="#E1586E" d="M10.1,9.8c0.2,0.1,0.3,0.3,0.2,0.4c-0.1,0.1-0.3,0.1-0.5-0.1C9.7,10,9.6,9.8,9.7,9.7
					C9.8,9.6,10,9.7,10.1,9.8z"/>
				<path fill="#E45D73" d="M9.8,9.5C10,9.7,10.1,9.9,10,10C9.9,10,9.7,10,9.5,9.9C9.3,9.7,9.3,9.5,9.3,9.4C9.4,9.4,9.6,9.4,9.8,9.5
					z"/>
				<path fill="#E7637A" d="M9.5,9.3c0.2,0.1,0.3,0.3,0.2,0.4C9.6,9.8,9.4,9.7,9.2,9.6C9,9.5,8.9,9.3,9,9.2C9.1,9.1,9.3,9.1,9.5,9.3
					z"/>
				<path fill="#EA697E" d="M9.2,9c0.2,0.1,0.3,0.3,0.2,0.4C9.3,9.5,9,9.5,8.9,9.3C8.7,9.2,8.6,9,8.7,8.9C8.8,8.8,9,8.8,9.2,9z"/>
				<path fill="#ED6F83" d="M8.8,8.7C9,8.9,9.1,9.1,9,9.2C8.9,9.3,8.7,9.2,8.5,9.1C8.3,8.9,8.3,8.7,8.4,8.6C8.4,8.5,8.6,8.6,8.8,8.7
					z"/>
				<path fill="#F07488" d="M8.5,8.4c0.2,0.2,0.3,0.4,0.2,0.5C8.6,9,8.4,9,8.2,8.8C8,8.6,7.9,8.4,8,8.3C8.1,8.2,8.4,8.3,8.5,8.4z"/>
				<path fill="#F3798E" d="M8.2,8.2c0.2,0.2,0.2,0.4,0.1,0.5c-0.1,0.1-0.3,0-0.5-0.2C7.7,8.3,7.7,8.1,7.8,8C7.9,7.9,8.1,8,8.2,8.2z
					"/>
				<path fill="#F68092" d="M8,7.9c0.2,0.2,0.2,0.4,0.1,0.5C8,8.5,7.8,8.4,7.6,8.2C7.4,8,7.4,7.8,7.5,7.7C7.6,7.6,7.8,7.7,8,7.9z"/>
				
					<ellipse transform="matrix(0.7575 -0.6529 0.6529 0.7575 -3.2087 6.7636)" fill="#F98598" cx="7.5" cy="7.7" rx="0.3" ry="0.5"/>
				<path fill="#FC8A9C" d="M7.4,7.2c0.2,0.2,0.2,0.4,0.1,0.5C7.4,7.8,7.2,7.8,7,7.6C6.9,7.4,6.8,7.1,6.9,7C7,6.9,7.2,7,7.4,7.2z"/>
				<path fill="#FF8FA2" d="M7.1,6.9c0.2,0.2,0.2,0.5,0.1,0.6c-0.1,0.1-0.3,0-0.5-0.2C6.6,7,6.5,6.8,6.6,6.7C6.7,6.6,7,6.7,7.1,6.9z
					"/>
			</g>
			<path fill="#CF334C" d="M7.1,6.9c0.2,0.2,0.2,0.5,0.1,0.6c-0.1,0.1-0.3,0-0.5-0.2C6.6,7,6.5,6.8,6.6,6.7C6.7,6.6,7,6.7,7.1,6.9z"
				/>
		</g>
		<g>
			<g>
				<path fill="#CF334C" d="M11.8,10.8c0.1,0,0.2,0.1,0.3,0.2c0,0.1,0.1,0.2,0,0.3c0,0.1-0.3,0.1-0.4-0.1
					C11.7,11,11.7,10.9,11.8,10.8z"/>
				<path fill="#D23952" d="M11.9,10.7c0.1,0.2,0,0.3-0.1,0.4c-0.1,0-0.2-0.1-0.3-0.2c-0.1-0.1,0-0.3,0-0.4
					C11.7,10.4,11.9,10.5,11.9,10.7z"/>
				<path fill="#D53F58" d="M11.8,10.3c0.1,0.2,0.1,0.3,0,0.4c-0.1,0-0.2,0-0.3-0.2c-0.1-0.1-0.1-0.3,0-0.4
					C11.5,10.1,11.7,10.2,11.8,10.3z"/>
				<path fill="#D8465E" d="M11.6,10c0.1,0.2,0.1,0.3,0,0.4c-0.1,0-0.2,0-0.3-0.2c-0.1-0.1-0.1-0.3,0-0.4C11.4,9.8,11.5,9.8,11.6,10
					z"/>
				<path fill="#DB4C63" d="M11.1,9.5c0.1,0,0.3,0.1,0.3,0.2c0.1,0.1,0.1,0.3,0,0.4c-0.1,0.1-0.2,0-0.3-0.2C11,9.7,11,9.5,11.1,9.5z
					"/>
				<path fill="#DE5269" d="M11.3,9.4c0.1,0.2,0.1,0.3,0,0.4c-0.1,0.1-0.3-0.1-0.3-0.2c-0.1-0.2-0.1-0.3,0-0.4
					C11,9.1,11.2,9.2,11.3,9.4z"/>
				<path fill="#E1586E" d="M10.7,8.8c0.1,0,0.3,0,0.4,0.2c0.1,0.2,0.1,0.4,0,0.4c-0.1,0-0.3,0-0.3-0.2C10.6,9,10.6,8.9,10.7,8.8z"
					/>
				<path fill="#E45D73" d="M10.6,8.5c0.1,0,0.3,0.1,0.4,0.2C11,8.9,11,9,10.9,9.1c-0.1,0.1-0.3,0-0.4-0.2
					C10.4,8.7,10.5,8.5,10.6,8.5z"/>
				<path fill="#E7637A" d="M10.8,8.4c0.1,0.2,0.1,0.4,0,0.4c-0.1,0.1-0.3-0.1-0.4-0.2c-0.1-0.2-0.1-0.4,0-0.4
					C10.5,8.1,10.7,8.2,10.8,8.4z"/>
				<path fill="#EA697E" d="M10.2,7.8c0.1,0,0.3,0.1,0.4,0.2c0.1,0.2,0.1,0.4,0,0.5c-0.1,0-0.3-0.1-0.4-0.2
					C10.1,8,10.1,7.8,10.2,7.8z"/>
				<path fill="#ED6F83" d="M10.1,7.4c0.1,0,0.3,0.1,0.4,0.3c0.1,0.2,0.1,0.4,0,0.4c-0.1,0.1-0.3,0-0.4-0.3C9.9,7.7,10,7.5,10.1,7.4
					z"/>
				<path fill="#F07488" d="M9.9,7.1c0.1,0,0.3,0.1,0.4,0.3c0.1,0.2,0.1,0.4-0.1,0.4c-0.1,0.1-0.3-0.1-0.4-0.3
					C9.8,7.3,9.8,7.1,9.9,7.1z"/>
				<path fill="#F3798E" d="M9.8,6.7c0.1,0,0.3,0.1,0.4,0.3c0.1,0.2,0.1,0.4-0.1,0.5c-0.1,0-0.3-0.1-0.4-0.3C9.6,7,9.7,6.8,9.8,6.7z
					"/>
				<path fill="#F68092" d="M9.7,6.4c0.1,0,0.3,0.1,0.4,0.3c0.1,0.2,0,0.4-0.1,0.5c-0.1,0-0.3-0.1-0.4-0.3C9.5,6.6,9.6,6.4,9.7,6.4z
					"/>
				<path fill="#F98598" d="M9.6,6c0.1-0.1,0.3,0.1,0.4,0.3c0.1,0.2,0,0.4-0.1,0.5c-0.1,0-0.3-0.1-0.4-0.3C9.4,6.3,9.4,6.1,9.6,6z"
					/>
				<path fill="#FC8A9C" d="M9.4,5.6c0.1,0,0.1,0,0.2,0.1c0.1,0.1,0.1,0.1,0.2,0.2c0.1,0.2,0,0.5-0.1,0.5C9.6,6.5,9.4,6.4,9.3,6.1
					C9.2,5.9,9.3,5.6,9.4,5.6z"/>
				<path fill="#FF8FA2" d="M9.4,5.3c0.2,0,0.2,0.2,0.3,0.4c0,0.2,0,0.4-0.1,0.5c-0.1,0-0.3-0.1-0.4-0.4C9.1,5.4,9.3,5.3,9.4,5.3z"
					/>
			</g>
			<path fill="#CF334C" d="M9.4,5.3c0.2,0,0.2,0.2,0.3,0.4c0,0.2,0,0.4-0.1,0.5c-0.1,0-0.3-0.1-0.4-0.4C9.1,5.4,9.3,5.3,9.4,5.3z"/>
		</g>
		<g>
			<g>
				<path fill="#CF334C" d="M12.7,10.5c0.1,0,0.2,0.2,0.2,0.3c0,0.1,0,0.3-0.1,0.3c-0.1,0.1-0.3-0.1-0.3-0.3
					C12.5,10.7,12.6,10.5,12.7,10.5z"/>
				<path fill="#D23952" d="M12.8,10.1c0.1,0,0.2,0.2,0.1,0.3c0,0.2-0.1,0.3-0.2,0.3c-0.1,0-0.2-0.2-0.2-0.3
					C12.6,10.3,12.7,10.1,12.8,10.1z"/>
				
					<ellipse transform="matrix(0.1743 -0.9847 0.9847 0.1743 0.6565 20.9331)" fill="#D53F58" cx="12.8" cy="10.1" rx="0.3" ry="0.2"/>
				<path fill="#D8465E" d="M12.9,9.3c0.1,0,0.2,0.2,0.2,0.4c0,0.2-0.2,0.3-0.3,0.3c-0.1,0-0.2-0.2-0.1-0.4
					C12.7,9.5,12.8,9.3,12.9,9.3z"/>
				
					<ellipse transform="matrix(0.1153 -0.9933 0.9933 0.1153 2.212 21.0617)" fill="#DB4C63" cx="12.9" cy="9.3" rx="0.4" ry="0.2"/>
				
					<ellipse transform="matrix(9.861582e-02 -0.9951 0.9951 9.861582e-02 2.8438 20.9264)" fill="#DE5269" cx="13" cy="8.9" rx="0.4" ry="0.2"/>
				<path fill="#E1586E" d="M13,8.1c0.1,0,0.2,0.2,0.2,0.4c0,0.2-0.1,0.4-0.2,0.4c-0.1,0-0.2-0.2-0.2-0.4C12.8,8.3,12.9,8.1,13,8.1z
					"/>
				
					<ellipse transform="matrix(2.628375e-02 -0.9997 0.9997 2.628375e-02 4.58 20.9011)" fill="#E45D73" cx="13" cy="8.1" rx="0.4" ry="0.2"/>
				<path fill="#E7637A" d="M13,7.3c0.1,0,0.2,0.2,0.2,0.4c0,0.2-0.1,0.4-0.2,0.4c-0.1,0-0.2-0.2-0.2-0.4C12.8,7.5,12.9,7.3,13,7.3z
					"/>
				<path fill="#EA697E" d="M13,6.9c0.1,0,0.2,0.2,0.2,0.4c0,0.2-0.1,0.4-0.2,0.4c-0.1,0-0.2-0.2-0.2-0.4C12.8,7.1,12.9,6.9,13,6.9z
					"/>
				
					<ellipse transform="matrix(0.9999 -1.335382e-02 1.335382e-02 0.9999 -9.106236e-02 0.1745)" fill="#ED6F83" cx="13" cy="6.9" rx="0.2" ry="0.4"/>
				
					<ellipse transform="matrix(0.9999 -1.145707e-02 1.145707e-02 0.9999 -7.371290e-02 0.1496)" fill="#F07488" cx="13" cy="6.5" rx="0.2" ry="0.4"/>
				
					<ellipse transform="matrix(1 -3.663386e-03 3.663386e-03 1 -2.229849e-02 4.771399e-02)" fill="#F3798E" cx="13" cy="6.1" rx="0.2" ry="0.4"/>
				<path fill="#F68092" d="M13,5.3c0.1,0,0.2,0.2,0.2,0.4c0,0.2-0.1,0.4-0.3,0.4c-0.1,0-0.3-0.2-0.3-0.4C12.8,5.5,12.9,5.3,13,5.3z
					"/>
				<path fill="#F98598" d="M13.1,4.9c0.1,0,0.2,0.2,0.2,0.5c0,0.2-0.1,0.4-0.3,0.4c-0.1,0-0.2-0.2-0.2-0.5
					C12.8,5.1,12.9,4.8,13.1,4.9z"/>
				<path fill="#FC8A9C" d="M13.1,4.5c0.1,0,0.2,0.2,0.2,0.5c0,0.2-0.1,0.4-0.3,0.4c-0.1,0-0.3-0.2-0.2-0.5
					C12.8,4.6,13,4.5,13.1,4.5z"/>
				<path fill="#FF8FA2" d="M13.1,4C13.1,4,13.2,4,13.1,4c0.1,0.1,0.1,0.1,0.2,0.1c0.1,0.1,0.1,0.3,0.1,0.4c0,0.3-0.2,0.5-0.3,0.4
					c-0.2,0-0.2-0.3-0.2-0.5c0-0.3,0.1-0.2,0.2-0.4C13,4.1,13.1,4,13.1,4z"/>
			</g>
			<path fill="#CF334C" d="M13.1,4C13.1,4,13.2,4,13.1,4c0.1,0.1,0.1,0.1,0.2,0.1c0.1,0.1,0.1,0.3,0.1,0.4c0,0.3-0.2,0.5-0.3,0.4
				c-0.2,0-0.2-0.3-0.2-0.5c0-0.3,0.1-0.2,0.2-0.4C13,4.1,13.1,4,13.1,4z"/>
		</g>
		<g>
			<g>
				<path fill="#CF334C" d="M13.4,10.6c0.1,0,0.2,0.1,0.2,0.3c0,0.2-0.1,0.3-0.2,0.3c-0.1,0-0.2-0.1-0.2-0.3
					C13.2,10.7,13.3,10.6,13.4,10.6z"/>
				<path fill="#D23952" d="M13.4,10.2c0.1,0,0.2,0.2,0.1,0.3c0,0.1-0.1,0.2-0.2,0.3c-0.1,0-0.2-0.1-0.2-0.3
					C13.2,10.3,13.3,10.2,13.4,10.2z"/>
				
					<ellipse transform="matrix(0.151 -0.9885 0.9885 0.151 1.3331 21.9121)" fill="#D53F58" cx="13.4" cy="10.2" rx="0.3" ry="0.2"/>
				<path fill="#D8465E" d="M13.5,9.6c0.1,0,0.2,0.2,0.1,0.3c0,0.2-0.1,0.3-0.2,0.3c-0.1,0-0.2-0.2-0.2-0.3
					C13.3,9.7,13.4,9.5,13.5,9.6z"/>
				<path fill="#DB4C63" d="M13.6,9.2c0.1,0,0.2,0.2,0.1,0.3c0,0.2-0.1,0.3-0.3,0.3c-0.1,0-0.2-0.2-0.1-0.3
					C13.4,9.3,13.5,9.2,13.6,9.2z"/>
				
					<ellipse transform="matrix(0.2062 -0.9785 0.9785 0.2062 1.8175 20.6022)" fill="#DE5269" cx="13.6" cy="9.2" rx="0.3" ry="0.2"/>
				<path fill="#E1586E" d="M13.8,8.5c0.1,0,0.2,0.2,0.1,0.4c0,0.2-0.2,0.3-0.3,0.3c-0.1,0-0.2-0.2-0.1-0.4
					C13.5,8.6,13.6,8.5,13.8,8.5z"/>
				
					<ellipse transform="matrix(0.2382 -0.9712 0.9712 0.2382 2.2051 19.8525)" fill="#E45D73" cx="13.8" cy="8.5" rx="0.3" ry="0.2"/>
				<path fill="#E7637A" d="M13.9,7.9c0.1,0,0.2,0.2,0.1,0.4c0,0.2-0.2,0.3-0.3,0.3c-0.1,0-0.2-0.2-0.1-0.4
					C13.7,8,13.8,7.8,13.9,7.9z"/>
				<path fill="#EA697E" d="M14,7.5c0.1,0,0.2,0.2,0.1,0.4c-0.1,0.2-0.2,0.3-0.3,0.3c-0.1,0-0.2-0.2-0.1-0.4
					C13.8,7.6,13.9,7.5,14,7.5z"/>
				<path fill="#ED6F83" d="M14.2,7.2c0.1,0.1,0.2,0.2,0.1,0.4c-0.1,0.2-0.2,0.3-0.3,0.3c-0.1,0-0.2-0.2-0.1-0.4
					C13.9,7.3,14,7.2,14.2,7.2z"/>
				<path fill="#F07488" d="M14.3,6.9c0.1,0.1,0.2,0.2,0.1,0.4c-0.1,0.2-0.2,0.3-0.3,0.2c-0.1,0-0.2-0.2-0.1-0.4
					C14,7,14.2,6.8,14.3,6.9z"/>
				
					<ellipse transform="matrix(0.3983 -0.9172 0.9172 0.3983 2.2507 17.2608)" fill="#F3798E" cx="14.3" cy="6.9" rx="0.4" ry="0.2"/>
				<path fill="#F68092" d="M14.6,6.3c0.1,0.1,0.2,0.3,0.1,0.4c-0.1,0.2-0.3,0.3-0.4,0.2c-0.1-0.1-0.2-0.3-0.1-0.4
					C14.3,6.3,14.4,6.2,14.6,6.3z"/>
				<path fill="#F98598" d="M14.7,5.9c0.1,0,0.2,0.3,0.1,0.5c-0.1,0.2-0.3,0.3-0.4,0.3c-0.1-0.1-0.2-0.3-0.1-0.4
					C14.4,6,14.5,5.9,14.7,5.9z"/>
				<path fill="#FC8A9C" d="M14.8,5.6c0.1,0,0.2,0.2,0.2,0.5c-0.1,0.2-0.3,0.3-0.4,0.3c-0.1-0.1-0.1-0.3-0.1-0.4
					C14.5,5.7,14.6,5.6,14.8,5.6z"/>
				<path fill="#FF8FA2" d="M14.8,5.3c0.1,0,0.2,0.2,0.2,0.4c0,0.3-0.2,0.4-0.4,0.4c-0.1-0.1-0.2-0.2-0.2-0.4
					C14.5,5.4,14.7,5.2,14.8,5.3z"/>
			</g>
			<path fill="#CF334C" d="M14.8,5.3c0.1,0,0.2,0.2,0.2,0.4c0,0.3-0.2,0.4-0.4,0.4c-0.1-0.1-0.2-0.2-0.2-0.4
				C14.5,5.4,14.7,5.2,14.8,5.3z"/>
		</g>
		<g>
			<g>
				<path fill="#CF334C" d="M13.8,10.7c0.1,0,0.1,0.2,0.1,0.3c0,0.1-0.1,0.2-0.2,0.3c-0.1,0.1-0.2-0.2-0.2-0.3
					C13.6,10.7,13.7,10.6,13.8,10.7z"/>
				<path fill="#D23952" d="M14,10.3c0.1,0,0.1,0.2,0,0.4c-0.1,0.2-0.2,0.3-0.3,0.2c-0.1,0-0.1-0.2-0.1-0.4
					C13.7,10.4,13.9,10.3,14,10.3z"/>
				
					<ellipse transform="matrix(0.4443 -0.8959 0.8959 0.4443 -1.3998 18.2359)" fill="#D53F58" cx="14" cy="10.2" rx="0.3" ry="0.2"/>
				<path fill="#D8465E" d="M14.3,9.6c0.1,0,0.1,0.2,0.1,0.4c-0.1,0.2-0.2,0.3-0.3,0.2c-0.1-0.1-0.1-0.2,0-0.4
					C14.1,9.6,14.2,9.5,14.3,9.6z"/>
				<path fill="#DB4C63" d="M14.5,9.2c0.1,0,0.1,0.2,0.1,0.4c-0.1,0.2-0.2,0.3-0.3,0.2c-0.1,0-0.1-0.2-0.1-0.4
					C14.2,9.3,14.3,9.2,14.5,9.2z"/>
				<path fill="#DE5269" d="M14.6,8.9c0.1,0,0.1,0.2,0.1,0.4c-0.1,0.2-0.2,0.3-0.3,0.2c-0.1,0-0.1-0.2-0.1-0.4
					C14.3,8.9,14.5,8.8,14.6,8.9z"/>
				
					<ellipse transform="matrix(0.3797 -0.9251 0.9251 0.3797 0.8976 18.9935)" fill="#E1586E" cx="14.6" cy="8.8" rx="0.4" ry="0.2"/>
				
					<ellipse transform="matrix(0.3797 -0.9251 0.9251 0.3797 1.3188 18.906)" fill="#E45D73" cx="14.8" cy="8.5" rx="0.4" ry="0.2"/>
				<path fill="#E7637A" d="M15.1,7.8c0.1,0.1,0.1,0.2,0,0.4c-0.1,0.2-0.2,0.3-0.4,0.3c-0.1,0-0.1-0.2-0.1-0.4
					C14.8,7.8,15,7.7,15.1,7.8z"/>
				<path fill="#EA697E" d="M15.3,7.4c0.1,0.1,0.1,0.3,0,0.4C15.2,8,15,8.2,14.9,8.1c-0.1,0-0.1-0.2,0-0.5C15,7.4,15.2,7.4,15.3,7.4
					z"/>
				<path fill="#ED6F83" d="M15.5,7.1c0.1,0.1,0.1,0.3,0,0.5c-0.1,0.2-0.3,0.3-0.4,0.2c-0.1-0.1-0.1-0.3,0-0.5
					C15.2,7.1,15.4,7,15.5,7.1z"/>
				<path fill="#F07488" d="M15.8,6.8c0.1,0.1,0.1,0.3-0.1,0.5c-0.1,0.2-0.3,0.3-0.4,0.2c-0.1-0.1-0.1-0.3,0-0.5
					C15.4,6.8,15.6,6.7,15.8,6.8z"/>
				<path fill="#F3798E" d="M16,6.5c0.1,0.1,0.1,0.3-0.1,0.5c-0.2,0.2-0.3,0.2-0.5,0.2c-0.1-0.1-0.1-0.3,0.1-0.5
					C15.7,6.5,15.9,6.4,16,6.5z"/>
				<path fill="#F68092" d="M16.3,6.2c0.1,0.1,0.1,0.3-0.1,0.5c-0.2,0.2-0.4,0.3-0.5,0.2c-0.1-0.1-0.1-0.3,0.1-0.5
					C15.9,6.2,16.1,6.1,16.3,6.2z"/>
				<path fill="#F98598" d="M16.5,5.9c0.1,0.1,0.1,0.3,0,0.5c-0.2,0.2-0.4,0.3-0.5,0.2c-0.1-0.1-0.1-0.3,0.1-0.5
					C16.2,5.9,16.4,5.8,16.5,5.9z"/>
				<path fill="#FC8A9C" d="M16.6,5.5c0.1,0,0.2,0.3,0,0.5c-0.2,0.2-0.4,0.3-0.5,0.2c-0.1-0.1-0.1-0.3,0-0.5
					C16.3,5.6,16.5,5.5,16.6,5.5z"/>
				<path fill="#FF8FA2" d="M16.7,5.1c0.1,0,0.2,0.2,0.2,0.5c-0.1,0.3-0.3,0.4-0.5,0.3c-0.1-0.1-0.1-0.3,0-0.5
					C16.4,5.3,16.6,5.1,16.7,5.1z"/>
			</g>
			<path fill="#CF334C" d="M16.7,5.1c0.1,0,0.2,0.2,0.2,0.5c-0.1,0.3-0.3,0.4-0.5,0.3c-0.1-0.1-0.1-0.3,0-0.5
				C16.4,5.3,16.6,5.1,16.7,5.1z"/>
		</g>
		<g>
			<g>
				<path fill="#CF334C" d="M14.8,10.7c0.1,0.1,0,0.2-0.1,0.3c-0.1,0.1-0.2,0.1-0.3,0.1c-0.1,0-0.1-0.2,0-0.4
					C14.6,10.6,14.8,10.6,14.8,10.7z"/>
				<path fill="#D23952" d="M14.8,10.5c0.1-0.1,0.3-0.1,0.3,0c0,0.1,0,0.2-0.2,0.3c-0.1,0.1-0.3,0.1-0.3,0
					C14.6,10.7,14.7,10.6,14.8,10.5z"/>
				<path fill="#D53F58" d="M15.1,10.3c0.1-0.1,0.3-0.1,0.3,0c0.1,0.1,0,0.2-0.2,0.3c-0.1,0.1-0.3,0.1-0.3,0
					C14.9,10.5,15,10.4,15.1,10.3z"/>
				<path fill="#D8465E" d="M15.7,10.1c0.1,0.1,0,0.2-0.1,0.3c-0.1,0.1-0.3,0.1-0.4,0c0-0.1,0-0.2,0.2-0.3
					C15.5,10,15.7,10,15.7,10.1z"/>
				
					<ellipse transform="matrix(0.8316 -0.5554 0.5554 0.8316 -2.9556 10.4686)" fill="#DB4C63" cx="15.8" cy="10.1" rx="0.3" ry="0.2"/>
				<path fill="#DE5269" d="M16,9.7c0.1-0.1,0.3-0.1,0.4,0c0.1,0.1,0,0.3-0.1,0.4c-0.1,0.1-0.3,0.1-0.4,0C15.7,10,15.8,9.8,16,9.7z"
					/>
				
					<ellipse transform="matrix(0.7904 -0.6126 0.6126 0.7904 -2.5215 12.0505)" fill="#E1586E" cx="16.3" cy="9.7" rx="0.3" ry="0.2"/>
				<path fill="#E45D73" d="M16.9,9.3c0.1,0.1,0,0.3-0.1,0.4c-0.1,0.1-0.3,0.1-0.4,0c-0.1-0.1,0-0.3,0.1-0.4
					C16.6,9.2,16.8,9.2,16.9,9.3z"/>
				<path fill="#E7637A" d="M17.1,9c0.1,0.1,0,0.3-0.1,0.4c-0.1,0.1-0.3,0.1-0.4,0c-0.1-0.1,0-0.3,0.1-0.4C16.9,9,17,8.9,17.1,9z"/>
				<path fill="#EA697E" d="M17.4,8.8c0.1,0.1,0.1,0.3-0.1,0.4c-0.1,0.1-0.3,0.2-0.4,0.1c-0.1-0.1,0-0.3,0.1-0.4
					C17.1,8.7,17.3,8.7,17.4,8.8z"/>
				
					<ellipse transform="matrix(0.698 -0.7161 0.7161 0.698 -1.0462 15.0903)" fill="#ED6F83" cx="17.4" cy="8.8" rx="0.4" ry="0.2"/>
				<path fill="#F07488" d="M17.9,8.3c0.1,0.1,0.1,0.3-0.1,0.4c-0.1,0.1-0.3,0.2-0.4,0.1c-0.1-0.1-0.1-0.3,0.1-0.4
					C17.6,8.2,17.8,8.2,17.9,8.3z"/>
				<path fill="#F3798E" d="M18.1,8c0.1,0.1,0.1,0.3-0.1,0.4c-0.1,0.2-0.4,0.2-0.5,0.1c-0.1-0.1-0.1-0.3,0.1-0.4
					C17.8,8,18,7.9,18.1,8z"/>
				<path fill="#F68092" d="M18.4,7.9c0.1,0.1,0,0.3-0.2,0.4c-0.1,0.1-0.3,0.2-0.4,0.1c-0.1-0.1-0.1-0.3,0.1-0.5
					C18.1,7.7,18.4,7.7,18.4,7.9z"/>
				<path fill="#F98598" d="M18.3,7.6c0.2-0.1,0.4-0.1,0.5,0.1c0.1,0.1-0.1,0.3-0.2,0.4c-0.2,0.1-0.3,0.1-0.4,0
					C17.9,8,18.1,7.7,18.3,7.6z"/>
				<path fill="#FC8A9C" d="M18.6,7.5c0.1-0.1,0.4-0.1,0.4,0c0.1,0.1,0,0.3-0.2,0.5c-0.2,0.1-0.4,0.1-0.5-0.1
					C18.3,7.8,18.4,7.6,18.6,7.5z"/>
				<path fill="#FF8FA2" d="M18.8,7.3c0.2-0.1,0.4-0.2,0.5,0c0.1,0.1,0,0.3-0.2,0.5c-0.2,0.1-0.5,0.1-0.5,0
					C18.6,7.6,18.7,7.4,18.8,7.3z"/>
			</g>
			<path fill="#CF334C" d="M18.8,7.3c0.2-0.1,0.4-0.2,0.5,0c0.1,0.1,0,0.3-0.2,0.5c-0.2,0.1-0.5,0.1-0.5,0
				C18.6,7.6,18.7,7.4,18.8,7.3z"/>
		</g>
		<g>
			<g>
				<path fill="#CF334C" d="M13.9,12c0.1-0.1,0.3-0.1,0.3,0c0,0.1,0,0.2-0.1,0.3c-0.1,0.1-0.3,0-0.3,0C13.7,12.1,13.7,12,13.9,12z"
					/>
				<path fill="#D23952" d="M14.2,11.8c0.2,0,0.3,0,0.3,0.1c0,0.1-0.1,0.2-0.2,0.2c-0.1,0.1-0.3,0-0.3-0.1
					C13.9,12,14,11.9,14.2,11.8z"/>
				<path fill="#D53F58" d="M14.5,11.7c0.2,0,0.3,0,0.3,0.1c0,0.1-0.1,0.2-0.2,0.3c-0.1,0-0.3,0-0.3-0.1
					C14.2,11.8,14.3,11.7,14.5,11.7z"/>
				<path fill="#D8465E" d="M14.8,11.6c0.1,0,0.3,0,0.3,0.1c0,0.1-0.1,0.2-0.2,0.3c-0.1,0-0.3,0-0.3-0.1
					C14.5,11.8,14.7,11.6,14.8,11.6z"/>
				<path fill="#DB4C63" d="M15.1,11.5c0.2,0,0.3,0,0.3,0.1c0,0.1-0.1,0.2-0.2,0.3c-0.2,0-0.3,0-0.3-0.1
					C14.9,11.7,15,11.5,15.1,11.5z"/>
				<path fill="#DE5269" d="M15.4,11.4c0.2,0,0.3,0,0.3,0.1c0,0.1-0.1,0.2-0.2,0.3c-0.2,0-0.3,0-0.3-0.1
					C15.2,11.6,15.3,11.5,15.4,11.4z"/>
				<path fill="#E1586E" d="M15.7,11.4c0.2,0,0.3,0,0.3,0.1c0,0.1-0.1,0.2-0.3,0.3c-0.2,0-0.3,0-0.3-0.1
					C15.5,11.5,15.6,11.4,15.7,11.4z"/>
				<path fill="#E45D73" d="M16,11.3c0.2,0,0.3,0,0.3,0.1c0,0.1-0.1,0.3-0.3,0.3c-0.2,0-0.3,0-0.3-0.1C15.8,11.4,15.9,11.3,16,11.3z
					"/>
				<path fill="#E7637A" d="M16.3,11.2c0.2-0.1,0.3,0,0.4,0.1c0,0.1-0.1,0.3-0.2,0.3c-0.2,0.1-0.3,0-0.4-0.1
					C16.1,11.4,16.2,11.3,16.3,11.2z"/>
				<path fill="#EA697E" d="M16.6,11.1c0.2-0.1,0.3,0,0.4,0.1c0,0.1-0.1,0.3-0.2,0.3c-0.2,0.1-0.3,0-0.4-0.1
					C16.4,11.3,16.5,11.1,16.6,11.1z"/>
				<path fill="#ED6F83" d="M16.9,11c0.2-0.1,0.4,0,0.4,0.1c0,0.1,0,0.3-0.2,0.3c-0.2,0.1-0.4,0-0.4-0.1C16.6,11.2,16.7,11,16.9,11z
					"/>
				
					<ellipse transform="matrix(0.9285 -0.3714 0.3714 0.9285 -2.8823 7.216)" fill="#F07488" cx="17.3" cy="11.1" rx="0.3" ry="0.2"/>
				<path fill="#F3798E" d="M17.5,10.7c0.2-0.1,0.4,0,0.4,0.1c0,0.1-0.1,0.3-0.2,0.4c-0.2,0.1-0.4,0-0.4-0.1
					C17.2,11,17.3,10.8,17.5,10.7z"/>
				<path fill="#F68092" d="M17.8,10.6c0.2-0.1,0.4,0,0.4,0.1c0,0.1-0.1,0.3-0.3,0.3c-0.2,0.1-0.4,0-0.4-0.1
					C17.5,10.9,17.6,10.7,17.8,10.6z"/>
				<path fill="#F98598" d="M18.1,10.5c0.3-0.1,0.5,0.1,0.4,0.2c0,0.1-0.1,0.3-0.3,0.3c-0.2,0-0.4,0-0.4-0.1
					C17.8,10.7,17.9,10.6,18.1,10.5z"/>
				<path fill="#FC8A9C" d="M18.5,10.5c0.3,0,0.4,0.2,0.3,0.3c0,0.2-0.3,0.2-0.4,0.2c-0.1,0-0.3-0.1-0.4-0.2
					C18.1,10.6,18.3,10.5,18.5,10.5z"/>
				<path fill="#FF8FA2" d="M18.9,10.5c0.2,0,0.2,0.1,0.3,0.2c0,0,0,0.2-0.1,0.2c-0.1,0.1-0.3,0.1-0.4,0.1c-0.2-0.1-0.3-0.2-0.3-0.3
					C18.4,10.5,18.7,10.5,18.9,10.5z"/>
			</g>
			<path fill="#CF334C" d="M18.9,10.5c0.2,0,0.2,0.1,0.3,0.2c0,0,0,0.2-0.1,0.2c-0.1,0.1-0.3,0.1-0.4,0.1c-0.2-0.1-0.3-0.2-0.3-0.3
				C18.4,10.5,18.7,10.5,18.9,10.5z"/>
		</g>
		<g>
			<g>
				<path fill="#CF334C" d="M13.7,10.9c0.1,0,0.1,0.2,0.1,0.3c0,0.1-0.1,0.2-0.2,0.2c-0.1,0-0.2-0.1-0.1-0.3
					C13.5,11,13.6,10.9,13.7,10.9z"/>
				<path fill="#D23952" d="M13.9,10.6c0.1,0,0.1,0.2,0.1,0.3c0,0.1-0.2,0.2-0.3,0.2c-0.1,0-0.1-0.2-0.1-0.3
					C13.6,10.7,13.8,10.6,13.9,10.6z"/>
				
					<ellipse transform="matrix(0.4076 -0.9132 0.9132 0.4076 -1.4392 18.9525)" fill="#D53F58" cx="13.9" cy="10.6" rx="0.3" ry="0.2"/>
				<path fill="#D8465E" d="M14.1,10c0.1,0,0.1,0.2,0.1,0.3c-0.1,0.1-0.2,0.2-0.3,0.2c-0.1,0-0.1-0.2-0.1-0.3
					C13.9,10.1,14,10,14.1,10z"/>
				<ellipse transform="matrix(0.4216 -0.9068 0.9068 0.4216 -0.89 18.6212)" fill="#DB4C63" cx="14.2" cy="10" rx="0.3" ry="0.2"/>
				<path fill="#DE5269" d="M14.4,9.5c0.1,0.1,0.1,0.2,0.1,0.4C14.4,10,14.3,10,14.2,10c-0.1,0-0.1-0.2-0.1-0.4
					C14.2,9.5,14.3,9.4,14.4,9.5z"/>
				<path fill="#E1586E" d="M14.6,9.2c0.1,0.1,0.1,0.2,0.1,0.4c-0.1,0.1-0.2,0.2-0.3,0.2c-0.1-0.1-0.1-0.2-0.1-0.4
					C14.3,9.2,14.4,9.1,14.6,9.2z"/>
				<path fill="#E45D73" d="M14.7,8.9c0.1,0.1,0.1,0.2,0,0.4c-0.1,0.1-0.2,0.2-0.3,0.2c-0.1-0.1-0.1-0.2,0-0.4
					C14.5,8.9,14.6,8.8,14.7,8.9z"/>
				<path fill="#E7637A" d="M15,8.7C15,8.7,15,8.9,14.9,9c-0.1,0.1-0.2,0.2-0.4,0.1c-0.1-0.1-0.1-0.2,0-0.4
					C14.7,8.6,14.9,8.6,15,8.7z"/>
				<path fill="#EA697E" d="M15.2,8.4c0.1,0.1,0,0.3-0.1,0.4C15,8.9,14.8,9,14.7,8.9c-0.1-0.1-0.1-0.3,0.1-0.4
					C14.9,8.3,15.1,8.3,15.2,8.4z"/>
				<path fill="#ED6F83" d="M15.5,8.3c0.1,0.1,0,0.3-0.1,0.4c-0.1,0.1-0.3,0.1-0.4,0c-0.1-0.1-0.1-0.3,0.1-0.4
					C15.2,8.1,15.4,8.1,15.5,8.3z"/>
				<path fill="#F07488" d="M15.3,8.1c0.2-0.1,0.4-0.1,0.4,0c0.1,0.1,0,0.3-0.2,0.4c-0.2,0.1-0.3,0.1-0.4,0
					C15.1,8.4,15.1,8.2,15.3,8.1z"/>
				<path fill="#F3798E" d="M15.6,7.9c0.2-0.1,0.3-0.1,0.4,0c0.1,0.1,0,0.3-0.2,0.4c-0.2,0.1-0.3,0.1-0.4,0
					C15.4,8.2,15.4,8,15.6,7.9z"/>
				<path fill="#F68092" d="M15.9,7.7c0.2-0.1,0.3-0.1,0.4,0c0.1,0.1,0,0.3-0.2,0.4c-0.2,0.1-0.4,0.1-0.4,0
					C15.6,8,15.7,7.8,15.9,7.7z"/>
				<path fill="#F98598" d="M16.1,7.5c0.1-0.1,0.3-0.1,0.4,0c0.1,0.1,0.1,0.3-0.1,0.4c-0.2,0.1-0.4,0.1-0.5,0
					C15.9,7.8,16,7.6,16.1,7.5z"/>
				<path fill="#FC8A9C" d="M16.7,7.2c0.1,0.1,0.1,0.3,0,0.5c-0.2,0.2-0.4,0.2-0.5,0.1c-0.1-0.1,0-0.3,0.1-0.4
					C16.4,7.2,16.6,7.2,16.7,7.2z"/>
				<path fill="#FF8FA2" d="M16.8,6.9c0.1,0,0.2,0.3,0.1,0.5c-0.1,0.2-0.4,0.3-0.5,0.2c-0.1-0.1-0.1-0.3,0-0.4
					C16.5,7,16.6,6.9,16.8,6.9z"/>
			</g>
			<path fill="#CF334C" d="M16.8,6.9c0.1,0,0.2,0.3,0.1,0.5c-0.1,0.2-0.4,0.3-0.5,0.2c-0.1-0.1-0.1-0.3,0-0.4
				C16.5,7,16.6,6.9,16.8,6.9z"/>
		</g>
		<g>
			<g>
				<path fill="#CF334C" d="M12.8,11c0.1,0,0.2,0.1,0.2,0.3c0,0.1-0.1,0.2-0.2,0.2c-0.1,0-0.2-0.1-0.2-0.3
					C12.6,11.1,12.7,11,12.8,11z"/>
				<path fill="#D23952" d="M12.7,10.7c0.1,0,0.2,0.1,0.2,0.2c0,0.2-0.1,0.3-0.2,0.3c-0.1,0-0.2-0.1-0.2-0.2
					C12.6,10.9,12.6,10.7,12.7,10.7z"/>
				<path fill="#D53F58" d="M12.9,10.6c0,0.2,0,0.3-0.1,0.3c-0.1,0-0.2-0.1-0.2-0.2c0-0.1,0-0.3,0.1-0.3
					C12.7,10.4,12.9,10.4,12.9,10.6z"/>
				<path fill="#D8465E" d="M12.8,10.3c0.1,0.1,0,0.3-0.1,0.3c-0.1,0-0.2,0-0.3-0.2c0-0.1,0-0.3,0.1-0.3
					C12.6,10.1,12.7,10.1,12.8,10.3z"/>
				<path fill="#DB4C63" d="M12.7,10c0,0.1,0,0.3-0.1,0.3c-0.1,0-0.2-0.1-0.3-0.2c0-0.2,0-0.3,0.1-0.3C12.5,9.7,12.7,9.8,12.7,10z"
					/>
				<path fill="#DE5269" d="M12.4,9.5c0.1,0,0.2,0.1,0.3,0.2c0,0.2,0,0.3-0.1,0.3c-0.1,0-0.2-0.1-0.3-0.2
					C12.2,9.7,12.2,9.5,12.4,9.5z"/>
				<path fill="#E1586E" d="M12.3,9.2c0.1,0,0.2,0.1,0.3,0.2c0,0.2,0,0.3-0.1,0.4c-0.1,0-0.2-0.1-0.3-0.2
					C12.1,9.3,12.2,9.2,12.3,9.2z"/>
				<path fill="#E45D73" d="M12.2,8.8c0.1,0,0.2,0.1,0.3,0.2c0,0.2,0,0.3-0.1,0.4c-0.1,0-0.2-0.1-0.3-0.2C12,9,12.1,8.9,12.2,8.8z"
					/>
				<path fill="#E7637A" d="M12.1,8.5c0.1,0,0.2,0.1,0.3,0.2c0,0.2,0,0.3-0.1,0.4c-0.1,0-0.3-0.1-0.3-0.2C11.9,8.7,12,8.6,12.1,8.5z
					"/>
				
					<ellipse transform="matrix(0.9745 -0.2242 0.2242 0.9745 -1.6041 2.9325)" fill="#EA697E" cx="12.1" cy="8.5" rx="0.2" ry="0.3"/>
				<path fill="#ED6F83" d="M12,7.9c0.1,0,0.3,0.1,0.3,0.3c0,0.2,0,0.3-0.2,0.4c-0.1,0-0.3-0.1-0.3-0.3C11.8,8.1,11.8,7.9,12,7.9z"
					/>
				<path fill="#F07488" d="M11.9,7.6c0.1,0,0.3,0.1,0.3,0.3c0,0.2,0,0.3-0.2,0.4c-0.1,0-0.3-0.1-0.3-0.3
					C11.7,7.8,11.8,7.6,11.9,7.6z"/>
				<path fill="#F3798E" d="M11.9,7.3c0.1,0,0.3,0.1,0.3,0.3c0,0.2,0,0.3-0.2,0.4c-0.1,0-0.3-0.1-0.3-0.3
					C11.6,7.4,11.7,7.3,11.9,7.3z"/>
				<path fill="#F68092" d="M11.9,6.9c0.1,0,0.3,0.1,0.3,0.3c0,0.2-0.1,0.4-0.2,0.4c-0.1,0-0.3-0.1-0.3-0.3
					C11.6,7.1,11.7,7,11.9,6.9z"/>
				<path fill="#F98598" d="M11.8,6.6c0.1,0,0.3,0.1,0.3,0.3c0,0.2-0.1,0.4-0.2,0.4c-0.1,0-0.3-0.1-0.3-0.3
					C11.6,6.8,11.7,6.6,11.8,6.6z"/>
				<path fill="#FC8A9C" d="M11.8,6.3c0.1,0,0.3,0.1,0.3,0.3C12.1,6.9,12,7,11.9,7c-0.1,0-0.3-0.2-0.3-0.3
					C11.5,6.5,11.6,6.3,11.8,6.3z"/>
				<path fill="#FF8FA2" d="M11.7,6c0.1,0,0.3,0.1,0.3,0.3c0,0.2-0.1,0.4-0.2,0.4c-0.1,0-0.3-0.1-0.3-0.3C11.5,6.2,11.6,6,11.7,6z"
					/>
			</g>
			<path fill="#CF334C" d="M11.7,6c0.1,0,0.3,0.1,0.3,0.3c0,0.2-0.1,0.4-0.2,0.4c-0.1,0-0.3-0.1-0.3-0.3C11.5,6.2,11.6,6,11.7,6z"/>
		</g>
		<g>
			<g>
				<path fill="#CF334C" d="M12.2,11.3c0.1,0,0.2,0.1,0.2,0.2c0,0.1,0,0.2-0.1,0.2c-0.1,0-0.2-0.1-0.2-0.2
					C12.1,11.4,12.1,11.3,12.2,11.3z"/>
				<path fill="#D23952" d="M12.2,11c0.1,0,0.2,0.1,0.2,0.2c0,0.1-0.1,0.2-0.2,0.2c-0.1,0-0.2-0.1-0.2-0.2C12,11.1,12.1,11,12.2,11z
					"/>
				<path fill="#D53F58" d="M12.2,10.7c0.1,0,0.2,0.1,0.2,0.2c0,0.1-0.1,0.2-0.2,0.2c-0.1,0-0.2-0.1-0.2-0.2
					C12,10.8,12.1,10.7,12.2,10.7z"/>
				<path fill="#D8465E" d="M12.1,10.4c0.1,0,0.2,0.1,0.3,0.2c0,0.2-0.1,0.3-0.2,0.3c-0.1,0-0.2-0.1-0.2-0.2
					C12,10.6,12,10.4,12.1,10.4z"/>
				<path fill="#DB4C63" d="M12.1,10.1c0.1,0,0.2,0.1,0.3,0.2c0,0.1,0,0.3-0.1,0.3c-0.1,0-0.2-0.1-0.3-0.2
					C11.9,10.3,12,10.2,12.1,10.1z"/>
				<path fill="#DE5269" d="M12.3,10c0,0.2,0,0.3-0.1,0.3c-0.1,0-0.2-0.1-0.3-0.2c0-0.1,0-0.3,0.1-0.3C12.1,9.8,12.2,9.9,12.3,10z"
					/>
				<path fill="#E1586E" d="M12.2,9.8c0.1,0.1,0,0.3-0.1,0.3c-0.1,0-0.2,0-0.3-0.2c-0.1-0.1,0-0.3,0.1-0.3
					C11.9,9.5,12.1,9.6,12.2,9.8z"/>
				<path fill="#E45D73" d="M12,9.5c0.1,0.1,0,0.3-0.1,0.4c-0.1,0-0.3,0-0.3-0.2c-0.1-0.1,0-0.3,0.1-0.4C11.8,9.3,12,9.3,12,9.5z"/>
				<path fill="#E7637A" d="M11.9,9.2c0.1,0.1,0,0.3-0.1,0.4c-0.1,0.1-0.2,0-0.3-0.1c-0.1-0.1,0-0.3,0.1-0.4
					C11.7,9,11.8,9.1,11.9,9.2z"/>
				
					<ellipse transform="matrix(0.8889 -0.4581 0.4581 0.8889 -2.8672 6.3131)" fill="#EA697E" cx="11.6" cy="9.1" rx="0.2" ry="0.3"/>
				<ellipse transform="matrix(0.9 -0.436 0.436 0.9 -2.6956 5.8751)" fill="#ED6F83" cx="11.5" cy="8.8" rx="0.2" ry="0.3"/>
				<path fill="#F07488" d="M11.5,8.5c0.1,0.1,0,0.3-0.1,0.4c-0.1,0.1-0.3,0-0.4-0.2c-0.1-0.2,0-0.3,0.1-0.4
					C11.3,8.2,11.5,8.3,11.5,8.5z"/>
				<path fill="#F3798E" d="M11.1,8c0.1,0,0.3,0,0.3,0.2c0.1,0.2,0,0.3-0.1,0.4c-0.1,0.1-0.3,0-0.4-0.2C10.9,8.2,11,8,11.1,8z"/>
				<path fill="#F68092" d="M11,7.7c0.1,0,0.3,0.1,0.3,0.2c0.1,0.2,0,0.3-0.1,0.4c-0.1,0.1-0.3,0-0.3-0.2C10.8,7.9,10.9,7.8,11,7.7z
					"/>
				<path fill="#F98598" d="M10.9,7.4c0.1,0,0.3,0.1,0.3,0.2c0.1,0.2,0,0.3-0.1,0.4C11,8.1,10.8,8,10.8,7.8
					C10.7,7.7,10.8,7.5,10.9,7.4z"/>
				<path fill="#FC8A9C" d="M10.8,7.2c0.1-0.1,0.3,0.1,0.4,0.2c0.1,0.2,0,0.3-0.1,0.4c-0.1,0.1-0.3-0.1-0.4-0.2
					C10.6,7.4,10.7,7.2,10.8,7.2z"/>
				<path fill="#FF8FA2" d="M10.7,6.9c0.1-0.1,0.3,0,0.4,0.2c0.1,0.2,0,0.4-0.1,0.4c-0.1,0-0.3-0.1-0.4-0.2
					C10.5,7.1,10.6,6.9,10.7,6.9z"/>
			</g>
			<path fill="#CF334C" d="M10.7,6.9c0.1-0.1,0.3,0,0.4,0.2c0.1,0.2,0,0.4-0.1,0.4c-0.1,0-0.3-0.1-0.4-0.2
				C10.5,7.1,10.6,6.9,10.7,6.9z"/>
		</g>
		<g>
			<g>
				<path fill="#CF334C" d="M12.3,12c0.1,0.1,0.1,0.2,0,0.3c0,0.1-0.2,0.1-0.3,0C12,12.2,12,12,12.1,12C12.2,11.9,12.3,11.9,12.3,12
					z"/>
				<path fill="#D23952" d="M12.2,11.8c0.1,0.1,0.1,0.2,0,0.3c-0.1,0.1-0.2,0-0.3-0.1c-0.1-0.1-0.1-0.2,0-0.3
					C12,11.7,12.1,11.7,12.2,11.8z"/>
				
					<ellipse transform="matrix(0.8489 -0.5285 0.5285 0.8489 -4.396 8.0628)" fill="#D53F58" cx="11.9" cy="11.7" rx="0.2" ry="0.2"/>
				
					<ellipse transform="matrix(0.8453 -0.5343 0.5343 0.8453 -4.3243 8.0631)" fill="#D8465E" cx="11.8" cy="11.5" rx="0.2" ry="0.2"/>
				
					<ellipse transform="matrix(0.8364 -0.5482 0.5482 0.8364 -4.2817 8.213)" fill="#DB4C63" cx="11.6" cy="11.3" rx="0.2" ry="0.2"/>
				
					<ellipse transform="matrix(0.8247 -0.5655 0.5655 0.8247 -4.2428 8.424)" fill="#DE5269" cx="11.5" cy="11.1" rx="0.2" ry="0.2"/>
				<path fill="#E1586E" d="M11.5,10.7c0.1,0.1,0.1,0.3,0,0.3c-0.1,0.1-0.2,0-0.3-0.1c-0.1-0.1-0.1-0.3,0-0.3
					C11.3,10.6,11.4,10.6,11.5,10.7z"/>
				<path fill="#E45D73" d="M11.4,10.5c0.1,0.1,0.1,0.3,0,0.3c-0.1,0.1-0.2,0-0.3-0.1c-0.1-0.1-0.1-0.3,0-0.3
					C11.1,10.3,11.3,10.4,11.4,10.5z"/>
				<path fill="#E7637A" d="M11.2,10.3c0.1,0.1,0.1,0.3,0,0.4c-0.1,0.1-0.2,0-0.3-0.1c-0.1-0.1-0.1-0.3,0-0.4
					C11,10.1,11.1,10.1,11.2,10.3z"/>
				<path fill="#EA697E" d="M11.1,10c0.1,0.1,0.1,0.3,0,0.4c-0.1,0.1-0.3,0-0.3-0.1c-0.1-0.1-0.1-0.3,0-0.4C10.8,9.9,11,9.9,11.1,10
					z"/>
				
					<ellipse transform="matrix(0.8296 -0.5584 0.5584 0.8296 -3.7311 7.6911)" fill="#ED6F83" cx="10.7" cy="10" rx="0.2" ry="0.3"/>
				<path fill="#F07488" d="M10.8,9.6c0.1,0.1,0.1,0.3,0,0.4c-0.1,0.1-0.3,0-0.4-0.1c-0.1-0.1-0.1-0.3,0-0.4
					C10.5,9.4,10.7,9.5,10.8,9.6z"/>
				<path fill="#F3798E" d="M10.3,9.3c0.1-0.1,0.3,0,0.4,0.1c0.1,0.1,0.1,0.3,0,0.4c-0.1,0.1-0.3,0-0.4-0.1
					C10.1,9.5,10.2,9.3,10.3,9.3z"/>
				<path fill="#F68092" d="M10.5,9.2c0.1,0.1,0,0.3-0.1,0.4c-0.1,0.1-0.3,0-0.4-0.1C10,9.3,10,9.1,10.2,9C10.3,9,10.4,9,10.5,9.2z"
					/>
				<ellipse transform="matrix(0.8734 -0.487 0.487 0.8734 -3.1223 6.1048)" fill="#F98598" cx="10.2" cy="9.1" rx="0.3" ry="0.3"/>
				
					<ellipse transform="matrix(0.8812 -0.4728 0.4728 0.8812 -2.9771 5.8029)" fill="#FC8A9C" cx="10.1" cy="8.8" rx="0.3" ry="0.3"/>
				<ellipse transform="matrix(0.8818 -0.4716 0.4716 0.8818 -2.8775 5.698)" fill="#FF8FA2" cx="9.9" cy="8.6" rx="0.3" ry="0.3"/>
			</g>
			<ellipse transform="matrix(0.8818 -0.4716 0.4716 0.8818 -2.8775 5.698)" fill="#CF334C" cx="9.9" cy="8.6" rx="0.3" ry="0.3"/>
		</g>
		<g>
			<g>
				
					<ellipse transform="matrix(0.6301 -0.7765 0.7765 0.6301 -5.1854 13.7852)" fill="#CF334C" cx="11.9" cy="12.3" rx="0.2" ry="0.2"/>
				
					<ellipse transform="matrix(0.5735 -0.8192 0.8192 0.5735 -5.0016 14.7567)" fill="#D23952" cx="11.7" cy="12.2" rx="0.2" ry="0.2"/>
				
					<ellipse transform="matrix(0.5285 -0.8489 0.8489 0.5285 -4.8187 15.4051)" fill="#D53F58" cx="11.5" cy="12" rx="0.2" ry="0.2"/>
				
					<ellipse transform="matrix(0.4954 -0.8686 0.8686 0.4954 -4.6746 15.7717)" fill="#D8465E" cx="11.2" cy="11.9" rx="0.2" ry="0.2"/>
				
					<ellipse transform="matrix(0.4651 -0.8853 0.8853 0.4651 -4.5424 16.0553)" fill="#DB4C63" cx="11" cy="11.8" rx="0.2" ry="0.2"/>
				
					<ellipse transform="matrix(0.4501 -0.893 0.893 0.4501 -4.4888 16.0488)" fill="#DE5269" cx="10.8" cy="11.7" rx="0.2" ry="0.2"/>
				
					<ellipse transform="matrix(0.4373 -0.8993 0.8993 0.4373 -4.4512 15.9956)" fill="#E1586E" cx="10.6" cy="11.6" rx="0.2" ry="0.2"/>
				
					<ellipse transform="matrix(0.4411 -0.8974 0.8974 0.4411 -4.4972 15.6617)" fill="#E45D73" cx="10.3" cy="11.4" rx="0.2" ry="0.2"/>
				
					<ellipse transform="matrix(0.4456 -0.8952 0.8952 0.4456 -4.5447 15.3191)" fill="#E7637A" cx="10.1" cy="11.3" rx="0.2" ry="0.3"/>
				
					<ellipse transform="matrix(0.4396 -0.8982 0.8982 0.4396 -4.5429 15.1466)" fill="#EA697E" cx="9.9" cy="11.2" rx="0.2" ry="0.3"/>
				
					<ellipse transform="matrix(0.4383 -0.8988 0.8988 0.4383 -4.5646 14.897)" fill="#ED6F83" cx="9.6" cy="11.1" rx="0.2" ry="0.3"/>
				<path fill="#F07488" d="M9.5,10.8c0.2,0.1,0.2,0.2,0.1,0.3c-0.1,0.1-0.2,0.2-0.3,0.1c-0.1-0.1-0.2-0.2-0.2-0.3
					C9.2,10.8,9.4,10.7,9.5,10.8z"/>
				<path fill="#F3798E" d="M9.3,10.7c0.2,0.1,0.2,0.2,0.2,0.3c-0.1,0.1-0.2,0.2-0.3,0.1c-0.1-0.1-0.2-0.2-0.2-0.3
					C8.9,10.7,9.1,10.6,9.3,10.7z"/>
				<path fill="#F68092" d="M9,10.6c0.2,0.1,0.2,0.2,0.2,0.3C9.1,11,9,11.1,8.9,11c-0.1,0-0.2-0.2-0.2-0.3C8.7,10.6,8.8,10.5,9,10.6
					z"/>
				<path fill="#F98598" d="M8.7,10.5c0.2,0,0.3,0.2,0.2,0.3c0,0.1-0.2,0.2-0.3,0.2c-0.1,0-0.2-0.2-0.2-0.3
					C8.4,10.5,8.6,10.5,8.7,10.5z"/>
				<path fill="#FC8A9C" d="M8.5,10.4c0.2,0,0.3,0.2,0.2,0.3c0,0.1-0.2,0.2-0.3,0.2c-0.2,0-0.3-0.2-0.2-0.3
					C8.2,10.5,8.3,10.4,8.5,10.4z"/>
				<path fill="#FF8FA2" d="M8.3,10.4c0.1,0,0.2,0.2,0.2,0.3c0,0.1-0.2,0.2-0.4,0.2c-0.2-0.1-0.3-0.2-0.2-0.3
					C8,10.4,8.1,10.3,8.3,10.4z"/>
			</g>
			<path fill="#CF334C" d="M8.3,10.4c0.1,0,0.2,0.2,0.2,0.3c0,0.1-0.2,0.2-0.4,0.2c-0.2-0.1-0.3-0.2-0.2-0.3
				C8,10.4,8.1,10.3,8.3,10.4z"/>
		</g>
		<g>
			<g>
				<path fill="#CF334C" d="M12.9,11.7c0.1,0,0.1,0.1,0.1,0.2c0,0.1-0.1,0.1-0.2,0.1c-0.1,0-0.2-0.1-0.2-0.2
					C12.7,11.8,12.8,11.7,12.9,11.7z"/>
				<path fill="#D23952" d="M13,11.6c0.1,0.1,0.1,0.2,0.1,0.2c0,0.1-0.1,0.1-0.2,0.1c-0.1,0-0.2-0.1-0.1-0.3
					C12.8,11.5,12.9,11.5,13,11.6z"/>
				<path fill="#D53F58" d="M13.1,11.4c0.1,0.1,0.1,0.2,0,0.3c0,0.1-0.2,0.1-0.3,0c-0.1,0-0.1-0.2,0-0.3
					C12.9,11.3,13.1,11.3,13.1,11.4z"/>
				<path fill="#D8465E" d="M13.3,11.2c0.1,0.1,0.1,0.2,0,0.3c-0.1,0.1-0.2,0.1-0.3,0c-0.1-0.1-0.1-0.2,0-0.3
					C13.1,11.1,13.2,11.1,13.3,11.2z"/>
				
					<ellipse transform="matrix(0.7317 -0.6816 0.6816 0.7317 -4.0614 12.0793)" fill="#DB4C63" cx="13.3" cy="11.2" rx="0.2" ry="0.2"/>
				
					<ellipse transform="matrix(0.7377 -0.6752 0.6752 0.7377 -3.9243 11.9975)" fill="#DE5269" cx="13.5" cy="11" rx="0.2" ry="0.2"/>
				<path fill="#E1586E" d="M13.8,10.7c0.1,0.1,0.1,0.2,0,0.3c-0.1,0.1-0.2,0.1-0.3,0c-0.1-0.1-0.1-0.2,0-0.3
					C13.6,10.7,13.7,10.7,13.8,10.7z"/>
				<path fill="#E45D73" d="M13.9,10.6c0.1,0.1,0.1,0.2,0,0.3c-0.1,0.1-0.2,0.1-0.3,0c-0.1-0.1-0.1-0.2,0-0.3
					C13.7,10.5,13.9,10.5,13.9,10.6z"/>
				<path fill="#E7637A" d="M14.1,10.4c0.1,0.1,0.1,0.2,0,0.3c-0.1,0.1-0.2,0.1-0.3,0c-0.1-0.1-0.1-0.2,0-0.3
					C13.9,10.3,14,10.3,14.1,10.4z"/>
				<path fill="#EA697E" d="M14.3,10.3c0.1,0.1,0.1,0.2,0,0.3c-0.1,0.1-0.2,0.1-0.3,0c-0.1-0.1-0.1-0.2,0-0.3
					C14,10.2,14.2,10.2,14.3,10.3z"/>
				<path fill="#ED6F83" d="M14.4,10.1c0.1,0.1,0.1,0.2,0,0.3c-0.1,0.1-0.2,0.1-0.3,0c-0.1-0.1-0.1-0.2,0-0.3
					C14.2,10,14.3,10,14.4,10.1z"/>
				
					<ellipse transform="matrix(0.7117 -0.7024 0.7024 0.7117 -2.9462 13.0484)" fill="#F07488" cx="14.4" cy="10.1" rx="0.2" ry="0.2"/>
				
					<ellipse transform="matrix(0.7149 -0.6992 0.6992 0.7149 -2.8055 13.0368)" fill="#F3798E" cx="14.6" cy="10" rx="0.2" ry="0.2"/>
				<path fill="#F68092" d="M14.9,9.6c0.1,0.1,0.1,0.3,0,0.3c-0.1,0.1-0.3,0.1-0.3,0c-0.1-0.1-0.1-0.3,0-0.4
					C14.7,9.5,14.8,9.5,14.9,9.6z"/>
				<path fill="#F98598" d="M15.1,9.5c0.1,0.1,0,0.3,0,0.3c-0.1,0.1-0.3,0.1-0.4,0c-0.1-0.1-0.1-0.3,0-0.4C14.9,9.4,15,9.4,15.1,9.5
					z"/>
				<path fill="#FC8A9C" d="M15.3,9.4c0.1,0.1,0,0.3-0.1,0.3c-0.1,0.1-0.2,0-0.3-0.1c-0.1-0.1-0.1-0.3,0.1-0.4
					C15.1,9.2,15.3,9.3,15.3,9.4z"/>
				<path fill="#FF8FA2" d="M15.2,9.2c0.1-0.1,0.2,0,0.3,0.1c0.1,0.1,0,0.3-0.1,0.4c-0.1,0-0.3,0-0.3-0.1C15,9.4,15,9.2,15.2,9.2z"
					/>
			</g>
			<path fill="#CF334C" d="M15.2,9.2c0.1-0.1,0.2,0,0.3,0.1c0.1,0.1,0,0.3-0.1,0.4c-0.1,0-0.3,0-0.3-0.1C15,9.4,15,9.2,15.2,9.2z"/>
		</g>
		<g>
			<g>
				<path fill="#CF334C" d="M13.5,11.7c0.1,0.1,0.1,0.2,0,0.3c0,0-0.1,0.1-0.2,0.1c-0.1,0-0.1-0.2-0.1-0.3
					C13.3,11.7,13.4,11.7,13.5,11.7z"/>
				<path fill="#D23952" d="M13.7,11.6c0.1,0.1,0,0.2-0.1,0.3c-0.1,0.1-0.2,0.1-0.3,0c-0.1-0.1-0.1-0.2,0-0.3
					C13.5,11.5,13.6,11.5,13.7,11.6z"/>
				<path fill="#D53F58" d="M13.9,11.5c0.1,0.1,0,0.2-0.1,0.3c-0.1,0.1-0.2,0-0.3,0c-0.1-0.1,0-0.2,0.1-0.3
					C13.7,11.4,13.8,11.4,13.9,11.5z"/>
				<path fill="#D8465E" d="M14.1,11.3c0.1,0.1,0,0.2-0.1,0.3c-0.1,0.1-0.2,0-0.3,0c-0.1-0.1,0-0.2,0.1-0.3
					C13.9,11.2,14,11.2,14.1,11.3z"/>
				<path fill="#DB4C63" d="M14.3,11.2c0,0.1,0,0.2-0.1,0.3c-0.1,0.1-0.2,0-0.3-0.1c-0.1-0.1,0-0.2,0.1-0.3
					C14.1,11.1,14.3,11.1,14.3,11.2z"/>
				<path fill="#DE5269" d="M14.5,11.1c0,0.1,0,0.2-0.1,0.3c-0.1,0.1-0.2,0-0.3-0.1c-0.1-0.1,0-0.2,0.1-0.3
					C14.3,10.9,14.5,11,14.5,11.1z"/>
				
					<ellipse transform="matrix(0.9075 -0.4201 0.4201 0.9075 -3.3117 7.1371)" fill="#E1586E" cx="14.5" cy="11.1" rx="0.2" ry="0.2"/>
				<ellipse transform="matrix(0.9107 -0.413 0.413 0.9107 -3.2187 7.0796)" fill="#E45D73" cx="14.8" cy="11" rx="0.2" ry="0.2"/>
				
					<ellipse transform="matrix(0.9169 -0.3991 0.3991 0.9169 -3.0994 6.8862)" fill="#E7637A" cx="15" cy="10.9" rx="0.2" ry="0.2"/>
				
					<ellipse transform="matrix(0.9228 -0.3852 0.3852 0.9228 -2.9831 6.6933)" fill="#EA697E" cx="15.2" cy="10.8" rx="0.2" ry="0.2"/>
				
					<ellipse transform="matrix(0.9316 -0.3635 0.3635 0.9316 -2.8338 6.3446)" fill="#ED6F83" cx="15.4" cy="10.7" rx="0.3" ry="0.2"/>
				<ellipse transform="matrix(0.9433 -0.332 0.332 0.9433 -2.636 5.8031)" fill="#F07488" cx="15.7" cy="10.6" rx="0.3" ry="0.2"/>
				<path fill="#F3798E" d="M15.8,10.3c0.1-0.1,0.3,0,0.3,0.2c0,0.1,0,0.3-0.2,0.3c-0.1,0-0.3,0-0.3-0.1
					C15.6,10.5,15.7,10.4,15.8,10.3z"/>
				<path fill="#F68092" d="M16.1,10.2c0.2,0,0.3,0,0.3,0.2c0,0.1-0.1,0.3-0.2,0.3c-0.1,0-0.3,0-0.3-0.2
					C15.8,10.4,15.9,10.3,16.1,10.2z"/>
				<path fill="#F98598" d="M16.3,10.2c0.2,0,0.3,0.1,0.3,0.2c0,0.1-0.1,0.3-0.2,0.3c-0.1,0-0.3-0.1-0.3-0.2
					C16.1,10.3,16.2,10.2,16.3,10.2z"/>
				<path fill="#FC8A9C" d="M16.6,10.1c0.2,0,0.3,0.1,0.3,0.2c0,0.1-0.1,0.3-0.2,0.3c-0.1,0-0.3-0.1-0.3-0.2
					C16.3,10.3,16.4,10.1,16.6,10.1z"/>
				<path fill="#FF8FA2" d="M16.8,10.1c0.2,0,0.3,0.1,0.3,0.2c0,0.1-0.1,0.3-0.3,0.3c-0.1,0-0.3-0.1-0.3-0.2
					C16.5,10.2,16.6,10.1,16.8,10.1z"/>
			</g>
			<path fill="#CF334C" d="M16.8,10.1c0.2,0,0.3,0.1,0.3,0.2c0,0.1-0.1,0.3-0.3,0.3c-0.1,0-0.3-0.1-0.3-0.2
				C16.5,10.2,16.6,10.1,16.8,10.1z"/>
		</g>
		<g>
			<g>
				<path fill="#CF334C" d="M13,12.4c0.1,0,0.3,0,0.3,0.1c0,0.1-0.1,0.2-0.2,0.2c-0.1,0-0.2,0-0.2-0.1C12.8,12.5,12.8,12.4,13,12.4z
					"/>
				<path fill="#D23952" d="M13.3,12.3c0.1,0,0.2,0.1,0.2,0.2c0,0.1-0.1,0.2-0.2,0.2c-0.1,0-0.2,0-0.2-0.2
					C13,12.4,13.1,12.3,13.3,12.3z"/>
				
					<ellipse transform="matrix(0.9981 -6.209366e-02 6.209366e-02 0.9981 -0.7479 0.8663)" fill="#D53F58" cx="13.6" cy="12.5" rx="0.2" ry="0.2"/>
				<path fill="#D8465E" d="M13.8,12.3c0.1,0,0.3,0.1,0.3,0.2c0,0.1-0.1,0.2-0.2,0.2c-0.1,0-0.2-0.1-0.3-0.2
					C13.6,12.4,13.7,12.3,13.8,12.3z"/>
				<path fill="#DB4C63" d="M14.1,12.3c0.1,0,0.3,0.1,0.2,0.2c0,0.1-0.1,0.2-0.2,0.2c-0.1,0-0.2-0.1-0.2-0.2
					C13.9,12.3,14,12.3,14.1,12.3z"/>
				
					<ellipse transform="matrix(6.230672e-02 -0.9981 0.9981 6.230672e-02 1.05 26.0414)" fill="#DE5269" cx="14.4" cy="12.5" rx="0.2" ry="0.3"/>
				
					<ellipse transform="matrix(6.261861e-02 -0.998 0.998 6.261861e-02 1.2844 26.3255)" fill="#E1586E" cx="14.7" cy="12.5" rx="0.2" ry="0.3"/>
				<path fill="#E45D73" d="M14.9,12.3c0.2,0,0.3,0.1,0.2,0.2c0,0.1-0.1,0.2-0.3,0.2c-0.1,0-0.3-0.1-0.3-0.2
					C14.7,12.4,14.8,12.3,14.9,12.3z"/>
				<path fill="#E7637A" d="M15.2,12.3c0.2,0,0.3,0.1,0.2,0.3c0,0.1-0.2,0.2-0.3,0.2c-0.1,0-0.2-0.1-0.2-0.3
					C14.9,12.4,15.1,12.3,15.2,12.3z"/>
				<path fill="#EA697E" d="M15.5,12.3c0.2,0,0.3,0.2,0.2,0.3c0,0.1-0.2,0.2-0.3,0.2c-0.1,0-0.2-0.1-0.2-0.3
					C15.2,12.4,15.4,12.3,15.5,12.3z"/>
				<path fill="#ED6F83" d="M15.8,12.4c0.2,0.1,0.3,0.2,0.2,0.3c-0.1,0.1-0.2,0.2-0.3,0.1c-0.1,0-0.2-0.2-0.2-0.3
					C15.5,12.4,15.6,12.4,15.8,12.4z"/>
				<path fill="#F07488" d="M16.1,12.5c0.2,0.1,0.2,0.2,0.2,0.4C16.2,13,16,13,15.9,13c-0.1,0-0.2-0.2-0.2-0.3
					C15.8,12.5,15.9,12.4,16.1,12.5z"/>
				<path fill="#F3798E" d="M16.4,12.6c0.2,0.1,0.2,0.2,0.1,0.4c-0.1,0.1-0.2,0.1-0.4,0.1C16,13,15.9,12.8,16,12.7
					C16,12.6,16.2,12.6,16.4,12.6z"/>
				
					<ellipse transform="matrix(0.4729 -0.8811 0.8811 0.4729 -2.7542 21.3622)" fill="#F68092" cx="16.5" cy="13" rx="0.3" ry="0.3"/>
				
					<ellipse transform="matrix(0.4782 -0.8782 0.8782 0.4782 -2.7938 21.5244)" fill="#F98598" cx="16.7" cy="13.1" rx="0.3" ry="0.3"/>
				<path fill="#FC8A9C" d="M17.1,13c0.2,0.1,0.2,0.3,0.1,0.4c-0.1,0.1-0.3,0.1-0.4,0.1c-0.1-0.1-0.2-0.3-0.1-0.4
					C16.7,13,16.9,12.9,17.1,13z"/>
				<path fill="#FF8FA2" d="M17.3,13.2c0.1,0,0.1,0.1,0.2,0.2c0,0,0,0.1,0,0.1c0,0.1-0.1,0.1-0.1,0.1c0,0,0,0-0.1,0
					c-0.1,0-0.1,0-0.1,0c0,0,0,0,0,0c-0.1,0-0.1,0-0.2,0c-0.1-0.1-0.2-0.3-0.1-0.4C17,13.1,17.2,13.1,17.3,13.2z"/>
			</g>
			<path fill="#CF334C" d="M17.3,13.2c0.1,0,0.1,0.1,0.2,0.2c0,0,0,0.1,0,0.1c0,0.1-0.1,0.1-0.1,0.1c0,0,0,0-0.1,0
				c-0.1,0-0.1,0-0.1,0c0,0,0,0,0,0c-0.1,0-0.1,0-0.2,0c-0.1-0.1-0.2-0.3-0.1-0.4C17,13.1,17.2,13.1,17.3,13.2z"/>
		</g>
		<g>
			<g>
				<path fill="#CF334C" d="M12.3,11.8c0.1,0,0.2,0.2,0.1,0.2c-0.1,0.1-0.1,0.1-0.2,0.1c-0.1,0-0.1-0.1-0.1-0.2
					C12.1,11.8,12.2,11.8,12.3,11.8z"/>
				<path fill="#D23952" d="M12.6,11.9c0.1,0.1,0.1,0.2,0,0.3c-0.1,0.1-0.2,0.1-0.2,0c-0.1,0-0.1-0.1,0-0.2
					C12.3,11.9,12.5,11.8,12.6,11.9z"/>
				<path fill="#D53F58" d="M12.7,12.1c0.1,0.1,0,0.2,0,0.3c-0.1,0.1-0.2,0-0.2,0c-0.1-0.1,0-0.2,0-0.2C12.5,12,12.7,12,12.7,12.1z"
					/>
				<path fill="#D8465E" d="M12.9,12.2c0.1,0.1,0,0.2-0.1,0.3c-0.1,0.1-0.2,0-0.3,0c0-0.1,0-0.2,0.1-0.3
					C12.7,12.1,12.8,12.1,12.9,12.2z"/>
				<path fill="#DB4C63" d="M13,12.4c0.1,0.1,0,0.2-0.1,0.3c-0.1,0-0.2,0-0.3-0.1c0-0.1,0-0.2,0.1-0.3C12.8,12.3,13,12.3,13,12.4z"
					/>
				
					<ellipse transform="matrix(0.9034 -0.4289 0.4289 0.9034 -4.2028 6.7674)" fill="#DE5269" cx="12.9" cy="12.7" rx="0.2" ry="0.2"/>
				<ellipse transform="matrix(0.9112 -0.412 0.412 0.9112 -4.1579 6.5026)" fill="#E1586E" cx="13" cy="12.9" rx="0.2" ry="0.2"/>
				<path fill="#E45D73" d="M13.3,13c0,0.1,0,0.2-0.1,0.3c-0.1,0.1-0.2,0-0.3-0.1c-0.1-0.1,0-0.2,0.1-0.3
					C13.1,12.8,13.2,12.9,13.3,13z"/>
				
					<ellipse transform="matrix(0.882 -0.4712 0.4712 0.882 -4.6943 7.7764)" fill="#E7637A" cx="13.2" cy="13.3" rx="0.2" ry="0.2"/>
				<ellipse transform="matrix(0.8751 -0.484 0.484 0.8751 -4.847 8.1058)" fill="#EA697E" cx="13.3" cy="13.4" rx="0.2" ry="0.2"/>
				
					<ellipse transform="matrix(0.8786 -0.4776 0.4776 0.8786 -4.882 8.0435)" fill="#ED6F83" cx="13.4" cy="13.6" rx="0.2" ry="0.2"/>
				<path fill="#F07488" d="M13.7,13.7c0.1,0.1,0,0.3-0.1,0.3c-0.1,0-0.3,0-0.3-0.1c-0.1-0.1,0-0.2,0.1-0.3
					C13.5,13.5,13.6,13.6,13.7,13.7z"/>
				<path fill="#F3798E" d="M13.8,13.9c0.1,0.1,0,0.3-0.2,0.3c-0.1,0-0.3,0-0.3-0.1c0-0.1,0-0.2,0.1-0.3
					C13.6,13.7,13.7,13.8,13.8,13.9z"/>
				<path fill="#F68092" d="M13.5,14c0.1-0.1,0.3,0,0.3,0.1c0,0.1-0.1,0.3-0.2,0.3c-0.1,0-0.3,0-0.3-0.1C13.4,14.2,13.4,14,13.5,14z
					"/>
				<path fill="#F98598" d="M13.6,14.2c0.1,0,0.3,0,0.3,0.2c0,0.2-0.1,0.3-0.2,0.3c-0.1,0-0.2-0.1-0.3-0.2
					C13.4,14.3,13.5,14.2,13.6,14.2z"/>
				<path fill="#FC8A9C" d="M13.7,14.3c0.1,0,0.3,0.1,0.3,0.2c0,0.2-0.1,0.3-0.3,0.2c-0.1,0-0.2-0.1-0.2-0.2
					C13.4,14.5,13.5,14.4,13.7,14.3z"/>
				<path fill="#FF8FA2" d="M13.7,14.5c0.1,0,0.3,0.1,0.2,0.3c-0.1,0.2-0.2,0.2-0.3,0.2c-0.1-0.1-0.2-0.2-0.2-0.3
					C13.4,14.6,13.6,14.6,13.7,14.5z"/>
			</g>
			<path fill="#CF334C" d="M13.7,14.5c0.1,0,0.3,0.1,0.2,0.3c-0.1,0.2-0.2,0.2-0.3,0.2c-0.1-0.1-0.2-0.2-0.2-0.3
				C13.4,14.6,13.6,14.6,13.7,14.5z"/>
		</g>
		<g>
			<g>
				<path fill="#CF334C" d="M12.2,11.9c0.1,0,0.1,0.1,0.1,0.2c0,0.1,0,0.2-0.1,0.2c-0.1,0-0.1-0.1-0.1-0.2
					C12.1,12,12.2,11.9,12.2,11.9z"/>
				<path fill="#D23952" d="M12.2,12.1c0,0.1,0,0.2-0.1,0.2c-0.1,0-0.1,0-0.2-0.1c0-0.1,0-0.2,0.1-0.2C12.1,11.9,12.2,12,12.2,12.1z
					"/>
				
					<ellipse transform="matrix(0.9324 -0.3615 0.3615 0.9324 -3.5914 5.1561)" fill="#D53F58" cx="12" cy="12.2" rx="0.1" ry="0.2"/>
				<path fill="#D8465E" d="M12,12.2c0,0.1,0,0.2,0,0.2c-0.1,0-0.2,0-0.2-0.1c0-0.1,0-0.2,0-0.2C11.8,12,11.9,12.1,12,12.2z"/>
				
					<ellipse transform="matrix(0.9068 -0.4215 0.4215 0.9068 -4.0897 6.0823)" fill="#DB4C63" cx="11.7" cy="12.3" rx="0.1" ry="0.2"/>
				
					<ellipse transform="matrix(0.9092 -0.4163 0.4163 0.9092 -4.0922 5.9418)" fill="#DE5269" cx="11.6" cy="12.4" rx="0.1" ry="0.2"/>
				
					<ellipse transform="matrix(0.9102 -0.4141 0.4141 0.9102 -4.1144 5.8543)" fill="#E1586E" cx="11.4" cy="12.4" rx="0.1" ry="0.2"/>
				<path fill="#E45D73" d="M11.4,12.4c0,0.1,0,0.2,0,0.3c-0.1,0-0.1,0-0.2-0.1c-0.1-0.1,0-0.2,0-0.3C11.3,12.2,11.4,12.3,11.4,12.4
					z"/>
				<path fill="#E7637A" d="M11.3,12.5c0,0.1,0,0.2,0,0.3c-0.1,0-0.2,0-0.2-0.1c-0.1-0.1-0.1-0.2,0-0.3
					C11.2,12.3,11.3,12.4,11.3,12.5z"/>
				<path fill="#EA697E" d="M11.2,12.6c0.1,0.1,0.1,0.2,0,0.3c-0.1,0-0.2,0-0.3-0.1c-0.1-0.1-0.1-0.2,0-0.3
					C11,12.4,11.1,12.4,11.2,12.6z"/>
				<path fill="#ED6F83" d="M11.1,12.6c0.1,0.1,0.1,0.2,0,0.3c-0.1,0.1-0.2,0-0.3-0.1c-0.1-0.1-0.1-0.2,0-0.3
					C10.8,12.5,11,12.5,11.1,12.6z"/>
				<path fill="#F07488" d="M10.9,12.7C11,12.8,11,12.9,11,13c-0.1,0.1-0.2,0-0.3-0.1c-0.1-0.1-0.1-0.2-0.1-0.3
					C10.7,12.6,10.9,12.6,10.9,12.7z"/>
				<path fill="#F3798E" d="M10.8,12.8c0.1,0.1,0.1,0.2,0.1,0.3c-0.1,0.1-0.2,0-0.3,0c-0.1-0.1-0.1-0.2-0.1-0.3
					C10.6,12.7,10.7,12.7,10.8,12.8z"/>
				
					<ellipse transform="matrix(0.6386 -0.7695 0.7695 0.6386 -6.1896 12.889)" fill="#F68092" cx="10.6" cy="13" rx="0.2" ry="0.3"/>
				
					<ellipse transform="matrix(0.6253 -0.7804 0.7804 0.6253 -6.3145 13.1482)" fill="#F98598" cx="10.5" cy="13.1" rx="0.2" ry="0.3"/>
				
					<ellipse transform="matrix(0.6172 -0.7868 0.7868 0.6172 -6.4399 13.2949)" fill="#FC8A9C" cx="10.4" cy="13.3" rx="0.2" ry="0.3"/>
				
					<ellipse transform="matrix(0.6137 -0.7895 0.7895 0.6137 -6.5671 13.3414)" fill="#FF8FA2" cx="10.4" cy="13.4" rx="0.2" ry="0.3"/>
			</g>
			
				<ellipse transform="matrix(0.6137 -0.7895 0.7895 0.6137 -6.5671 13.3414)" fill="#CF334C" cx="10.4" cy="13.4" rx="0.2" ry="0.3"/>
		</g>
		<g>
			<g>
				<path fill="#CF334C" d="M12.1,11.6c0.1,0,0.2,0,0.2,0.1c0.1,0.1,0,0.2-0.2,0.2c-0.1,0-0.2-0.1-0.2-0.2
					C11.9,11.7,12,11.6,12.1,11.6z"/>
				<path fill="#D23952" d="M11.9,11.6c0.1,0,0.2,0.1,0.2,0.2c0,0.1-0.1,0.2-0.2,0.2c-0.1,0-0.2-0.1-0.2-0.2
					C11.7,11.7,11.8,11.6,11.9,11.6z"/>
				<path fill="#D53F58" d="M11.7,11.6c0.1,0,0.2,0.1,0.2,0.2c0,0.1-0.1,0.2-0.2,0.2c-0.1,0-0.2-0.1-0.2-0.2
					C11.4,11.6,11.5,11.6,11.7,11.6z"/>
				<path fill="#D8465E" d="M11.4,11.6c0.1,0,0.2,0.1,0.2,0.2c0,0.1-0.1,0.2-0.2,0.2c-0.1,0-0.2-0.1-0.2-0.2
					C11.2,11.7,11.3,11.6,11.4,11.6z"/>
				
					<ellipse transform="matrix(0.9974 -7.211085e-02 7.211085e-02 0.9974 -0.8196 0.8342)" fill="#DB4C63" cx="11.1" cy="11.8" rx="0.2" ry="0.2"/>
				<path fill="#DE5269" d="M10.9,11.6c0.1,0,0.2,0.1,0.3,0.2c0,0.1-0.1,0.2-0.2,0.2c-0.1,0-0.2-0.1-0.3-0.2
					C10.7,11.7,10.7,11.6,10.9,11.6z"/>
				
					<ellipse transform="matrix(0.9868 -0.1618 0.1618 0.9868 -1.7737 1.8802)" fill="#E1586E" cx="10.7" cy="11.8" rx="0.2" ry="0.2"/>
				
					<ellipse transform="matrix(0.9813 -0.1926 0.1926 0.9813 -2.0917 2.2277)" fill="#E45D73" cx="10.4" cy="11.9" rx="0.2" ry="0.2"/>
				
					<ellipse transform="matrix(0.9736 -0.2284 0.2284 0.9736 -2.4556 2.6391)" fill="#E7637A" cx="10.2" cy="11.9" rx="0.2" ry="0.2"/>
				<ellipse transform="matrix(0.9635 -0.2678 0.2678 0.9635 -2.848 3.0983)" fill="#EA697E" cx="9.9" cy="12" rx="0.3" ry="0.2"/>
				
					<ellipse transform="matrix(0.9531 -0.3025 0.3025 0.9531 -3.1942 3.4996)" fill="#ED6F83" cx="9.7" cy="12.1" rx="0.3" ry="0.2"/>
				
					<ellipse transform="matrix(0.9424 -0.3345 0.3345 0.9424 -3.5154 3.8658)" fill="#F07488" cx="9.5" cy="12.1" rx="0.3" ry="0.2"/>
				<path fill="#F3798E" d="M9.1,12c0.1-0.1,0.3,0,0.3,0.1c0,0.1,0,0.3-0.2,0.3c-0.1,0-0.3,0-0.3-0.1C8.9,12.2,9,12,9.1,12z"/>
				<path fill="#F68092" d="M8.9,12.1c0.1-0.1,0.3,0,0.4,0.1c0,0.1,0,0.3-0.2,0.3c-0.1,0.1-0.3,0-0.3-0.1
					C8.7,12.3,8.8,12.2,8.9,12.1z"/>
				
					<ellipse transform="matrix(0.9005 -0.4348 0.4348 0.9005 -4.5281 5.0554)" fill="#F98598" cx="8.8" cy="12.4" rx="0.3" ry="0.3"/>
				<path fill="#FC8A9C" d="M8.4,12.3c0.1-0.1,0.3,0,0.4,0.1c0.1,0.1,0,0.3-0.1,0.4c-0.1,0.1-0.3,0-0.4-0.1
					C8.2,12.6,8.3,12.4,8.4,12.3z"/>
				<path fill="#FF8FA2" d="M8.2,12.4c0.1-0.1,0.3-0.1,0.4,0.1c0.1,0.1,0,0.3-0.1,0.4c-0.1,0.1-0.3,0-0.4-0.1
					C8,12.7,8.1,12.5,8.2,12.4z"/>
			</g>
			<path fill="#CF334C" d="M8.2,12.4c0.1-0.1,0.3-0.1,0.4,0.1c0.1,0.1,0,0.3-0.1,0.4c-0.1,0.1-0.3,0-0.4-0.1
				C8,12.7,8.1,12.5,8.2,12.4z"/>
		</g>
		<g>
			<g>
				<path fill="#CF334C" d="M12.8,11.2c0.1,0,0.1,0.1,0.1,0.2c0,0.1-0.1,0.2-0.2,0.2c-0.1,0-0.1-0.1-0.1-0.2
					C12.6,11.3,12.7,11.2,12.8,11.2z"/>
				<path fill="#D23952" d="M12.9,11.2c0.1,0,0.2,0.1,0.1,0.2c0,0.1-0.1,0.2-0.2,0.2c-0.1,0-0.2-0.1-0.1-0.2
					C12.8,11.3,12.8,11.2,12.9,11.2z"/>
				<path fill="#D53F58" d="M13.2,11.3c0.1,0,0.1,0.2,0.1,0.2c-0.1,0.1-0.1,0.1-0.2,0.1c-0.1,0-0.1-0.1-0.1-0.2
					C13,11.3,13.1,11.3,13.2,11.3z"/>
				<path fill="#D8465E" d="M13.4,11.4c0.1,0,0.1,0.2,0,0.3c-0.1,0.1-0.2,0.1-0.2,0.1c-0.1,0-0.1-0.1,0-0.2
					C13.2,11.4,13.3,11.3,13.4,11.4z"/>
				<path fill="#DB4C63" d="M13.5,11.5c0.1,0.1,0.1,0.2,0,0.3c-0.1,0.1-0.2,0.1-0.3,0c-0.1-0.1-0.1-0.2,0-0.3
					C13.3,11.5,13.5,11.4,13.5,11.5z"/>
				<path fill="#DE5269" d="M13.7,11.6c0.1,0.1,0.1,0.2,0,0.3c-0.1,0.1-0.2,0.1-0.3,0c-0.1-0.1,0-0.2,0-0.3
					C13.5,11.6,13.6,11.6,13.7,11.6z"/>
				
					<ellipse transform="matrix(0.7835 -0.6214 0.6214 0.7835 -4.4521 11.0823)" fill="#E1586E" cx="13.7" cy="11.9" rx="0.2" ry="0.2"/>
				
					<ellipse transform="matrix(0.8159 -0.5783 0.5783 0.8159 -4.4453 10.2014)" fill="#E45D73" cx="13.8" cy="12.1" rx="0.2" ry="0.2"/>
				
					<ellipse transform="matrix(0.8144 -0.5803 0.5803 0.8144 -4.5165 10.3402)" fill="#E7637A" cx="13.9" cy="12.2" rx="0.2" ry="0.2"/>
				
					<ellipse transform="matrix(0.8053 -0.5928 0.5928 0.8053 -4.6111 10.7237)" fill="#EA697E" cx="14" cy="12.4" rx="0.2" ry="0.2"/>
				<path fill="#ED6F83" d="M14.3,12.4c0.1,0.1,0,0.2-0.1,0.3c-0.1,0.1-0.2,0.1-0.3,0c-0.1-0.1,0-0.2,0.1-0.3
					C14.1,12.3,14.3,12.3,14.3,12.4z"/>
				<path fill="#F07488" d="M14.4,12.6c0.1,0.1,0,0.2-0.1,0.3c-0.1,0.1-0.3,0.1-0.3,0c-0.1-0.1,0-0.2,0.1-0.3
					C14.2,12.4,14.4,12.5,14.4,12.6z"/>
				<path fill="#F3798E" d="M14.6,12.7c0.1,0.1,0,0.2-0.1,0.3c-0.1,0.1-0.3,0-0.3,0c-0.1-0.1,0-0.2,0.1-0.3
					C14.3,12.6,14.5,12.6,14.6,12.7z"/>
				<path fill="#F68092" d="M14.7,12.9c0.1,0.1,0,0.3-0.2,0.3c-0.1,0-0.3,0-0.3-0.1c-0.1-0.1,0-0.2,0.1-0.3
					C14.5,12.8,14.6,12.8,14.7,12.9z"/>
				<path fill="#F98598" d="M14.4,13c0.1-0.1,0.3,0,0.3,0.1c0,0.1-0.1,0.3-0.2,0.3c-0.1,0-0.3-0.1-0.3-0.1
					C14.2,13.2,14.3,13.1,14.4,13z"/>
				<path fill="#FC8A9C" d="M14.5,13.2c0.1,0,0.3,0,0.3,0.2c0,0.1-0.1,0.2-0.2,0.3c-0.1,0-0.3-0.1-0.3-0.2
					C14.3,13.3,14.4,13.2,14.5,13.2z"/>
				<path fill="#FF8FA2" d="M14.5,13.3c0.1,0,0.3,0.1,0.3,0.2c0,0.1-0.1,0.2-0.2,0.3c-0.1,0.1-0.3,0-0.3-0.2
					C14.3,13.5,14.4,13.4,14.5,13.3z"/>
			</g>
			<path fill="#CF334C" d="M14.5,13.3c0.1,0,0.3,0.1,0.3,0.2c0,0.1-0.1,0.2-0.2,0.3c-0.1,0.1-0.3,0-0.3-0.2
				C14.3,13.5,14.4,13.4,14.5,13.3z"/>
		</g>
		<g>
			<g>
				<path fill="#CF334C" d="M12.4,11.7L12.4,11.7L12.4,11.7L12.4,11.7L12.4,11.7C12.4,11.8,12.4,11.8,12.4,11.7L12.4,11.7z"/>
				<path fill="#CF334C" d="M12.3,11.5c0.1,0,0.1,0.1,0,0.1c0,0,0,0.1,0,0.1c0,0,0,0,0,0l0,0l0,0l0,0l0,0c0,0,0,0,0,0
					c0,0-0.1,0-0.2-0.1c-0.1-0.1-0.1-0.1-0.1-0.2C12.2,11.5,12.3,11.5,12.3,11.5z"/>
				<path fill="#D23952" d="M12.3,11.7c0.1,0.1,0.1,0.1,0.1,0.2c0,0-0.1,0-0.2,0c-0.1,0-0.2-0.1-0.1-0.2
					C12.1,11.6,12.2,11.6,12.3,11.7z"/>
				<path fill="#D53F58" d="M12.2,11.8c0.1,0,0.2,0.1,0.1,0.2c0,0-0.1,0.1-0.2,0c-0.1,0-0.2-0.1-0.1-0.2
					C12,11.8,12.1,11.7,12.2,11.8z"/>
				
					<ellipse transform="matrix(0.2986 -0.9544 0.9544 0.2986 -2.9822 19.9691)" fill="#D8465E" cx="12.1" cy="12" rx="0.1" ry="0.2"/>
				
					<ellipse transform="matrix(0.2573 -0.9663 0.9663 0.2573 -2.7751 20.667)" fill="#DB4C63" cx="12.1" cy="12.1" rx="0.1" ry="0.2"/>
				
					<ellipse transform="matrix(0.2288 -0.9735 0.9735 0.2288 -2.6668 21.1662)" fill="#DE5269" cx="12" cy="12.3" rx="0.1" ry="0.2"/>
				
					<ellipse transform="matrix(0.2023 -0.9793 0.9793 0.2023 -2.5671 21.6357)" fill="#E1586E" cx="12" cy="12.4" rx="0.1" ry="0.2"/>
				
					<ellipse transform="matrix(0.1874 -0.9823 0.9823 0.1874 -2.5725 21.9353)" fill="#E45D73" cx="12" cy="12.5" rx="0.1" ry="0.2"/>
				
					<ellipse transform="matrix(0.1737 -0.9848 0.9848 0.1737 -2.5866 22.2202)" fill="#E7637A" cx="11.9" cy="12.7" rx="0.1" ry="0.2"/>
				
					<ellipse transform="matrix(0.1589 -0.9873 0.9873 0.1589 -2.5866 22.5243)" fill="#EA697E" cx="11.9" cy="12.8" rx="0.1" ry="0.2"/>
				
					<ellipse transform="matrix(0.1517 -0.9884 0.9884 0.1517 -2.6606 22.7193)" fill="#ED6F83" cx="11.9" cy="12.9" rx="0.1" ry="0.2"/>
				
					<ellipse transform="matrix(0.1443 -0.9895 0.9895 0.1443 -2.7318 22.9204)" fill="#F07488" cx="11.9" cy="13" rx="0.1" ry="0.2"/>
				
					<ellipse transform="matrix(0.1359 -0.9907 0.9907 0.1359 -2.791 23.1382)" fill="#F3798E" cx="11.9" cy="13.2" rx="0.1" ry="0.2"/>
				
					<ellipse transform="matrix(0.1261 -0.992 0.992 0.1261 -2.8357 23.3785)" fill="#F68092" cx="11.9" cy="13.3" rx="0.1" ry="0.3"/>
				
					<ellipse transform="matrix(0.1202 -0.9927 0.9927 0.1202 -2.9188 23.5647)" fill="#F98598" cx="11.8" cy="13.4" rx="0.1" ry="0.3"/>
				
					<ellipse transform="matrix(0.1184 -0.993 0.993 0.1184 -3.0431 23.6905)" fill="#FC8A9C" cx="11.8" cy="13.6" rx="0.2" ry="0.3"/>
				
					<ellipse transform="matrix(0.1152 -0.9933 0.9933 0.1152 -3.1532 23.8376)" fill="#FF8FA2" cx="11.8" cy="13.7" rx="0.2" ry="0.3"/>
			</g>
			
				<ellipse transform="matrix(0.1152 -0.9933 0.9933 0.1152 -3.1532 23.8376)" fill="#CF334C" cx="11.8" cy="13.7" rx="0.2" ry="0.3"/>
		</g>
		<g>
			<g>
				<path fill="#CF334C" d="M12.3,11.4c0.1,0.1,0.1,0.2,0,0.2c-0.1,0.1-0.2,0.1-0.2,0.1c0,0-0.1-0.1,0-0.2
					C12.1,11.5,12.2,11.4,12.3,11.4z"/>
				<path fill="#D23952" d="M12.1,11.4c0.1,0,0.1,0.1,0.1,0.2c0,0.1-0.1,0.2-0.2,0.1c-0.1,0-0.1-0.1-0.1-0.2
					C12,11.4,12,11.3,12.1,11.4z"/>
				
					<ellipse transform="matrix(0.2214 -0.9752 0.9752 0.2214 -1.9385 20.6039)" fill="#D53F58" cx="11.9" cy="11.5" rx="0.2" ry="0.1"/>
				
					<ellipse transform="matrix(0.2814 -0.9596 0.9596 0.2814 -2.5362 19.5719)" fill="#D8465E" cx="11.8" cy="11.5" rx="0.2" ry="0.1"/>
				
					<ellipse transform="matrix(0.3186 -0.9479 0.9479 0.3186 -2.8918 18.8518)" fill="#DB4C63" cx="11.7" cy="11.4" rx="0.2" ry="0.1"/>
				
					<ellipse transform="matrix(0.3575 -0.9339 0.9339 0.3575 -3.226 18.0928)" fill="#DE5269" cx="11.5" cy="11.4" rx="0.2" ry="0.1"/>
				<path fill="#E1586E" d="M11.5,11.1c0.1,0,0.1,0.1,0,0.3c0,0.1-0.1,0.2-0.2,0.1c-0.1,0-0.1-0.2,0-0.3
					C11.3,11.2,11.4,11.1,11.5,11.1z"/>
				<path fill="#E45D73" d="M11.4,11.1c0.1,0,0.1,0.1,0,0.3c-0.1,0.1-0.2,0.2-0.2,0.1c-0.1,0-0.1-0.2,0-0.3
					C11.2,11.1,11.3,11.1,11.4,11.1z"/>
				<path fill="#E7637A" d="M11.3,11c0.1,0,0.1,0.1,0,0.3c-0.1,0.1-0.2,0.2-0.2,0.1c-0.1,0-0.1-0.2,0-0.3C11.1,11,11.2,11,11.3,11z"
					/>
				
					<ellipse transform="matrix(0.5699 -0.8217 0.8217 0.5699 -4.3932 13.8641)" fill="#EA697E" cx="11" cy="11.1" rx="0.2" ry="0.1"/>
				
					<ellipse transform="matrix(0.5856 -0.8106 0.8106 0.5856 -4.4249 13.4406)" fill="#ED6F83" cx="10.9" cy="11" rx="0.2" ry="0.1"/>
				<ellipse transform="matrix(0.5766 -0.817 0.817 0.5766 -4.3798 13.4829)" fill="#F07488" cx="10.8" cy="11" rx="0.2" ry="0.1"/>
				
					<ellipse transform="matrix(0.563 -0.8264 0.8264 0.563 -4.3213 13.6047)" fill="#F3798E" cx="10.7" cy="10.9" rx="0.2" ry="0.2"/>
				<path fill="#F68092" d="M10.7,10.6c0.1,0,0.1,0.2,0,0.3c-0.1,0.1-0.2,0.2-0.3,0.1c-0.1,0-0.1-0.2,0-0.3
					C10.5,10.6,10.6,10.5,10.7,10.6z"/>
				<path fill="#F98598" d="M10.6,10.5c0.1,0,0.1,0.2,0,0.3c-0.1,0.1-0.2,0.2-0.3,0.1c-0.1,0-0.1-0.2,0-0.3
					C10.4,10.5,10.5,10.5,10.6,10.5z"/>
				<path fill="#FC8A9C" d="M10.5,10.4c0.1,0,0.1,0.2,0,0.3c-0.1,0.1-0.2,0.2-0.3,0.2c-0.1,0-0.1-0.2,0-0.3
					C10.2,10.5,10.4,10.4,10.5,10.4z"/>
				<path fill="#FF8FA2" d="M10.3,10.4c0.1,0,0.1,0.2,0.1,0.3c-0.1,0.1-0.2,0.2-0.2,0.2c-0.1,0-0.1-0.2-0.1-0.3
					C10.1,10.4,10.2,10.3,10.3,10.4z"/>
			</g>
			<path fill="#CF334C" d="M10.3,10.4c0.1,0,0.1,0.2,0.1,0.3c-0.1,0.1-0.2,0.2-0.2,0.2c-0.1,0-0.1-0.2-0.1-0.3
				C10.1,10.4,10.2,10.3,10.3,10.4z"/>
		</g>
		<g>
			<g>
				<path fill="#CF334C" d="M12.4,11.3c0.1,0,0.2,0.1,0.2,0.1c0,0-0.1,0.1-0.2,0.1c-0.1,0-0.2-0.1-0.2-0.1
					C12.2,11.3,12.3,11.2,12.4,11.3z"/>
				<path fill="#D23952" d="M12.5,11.3c0,0.1-0.1,0.1-0.2,0.1c-0.1,0-0.2-0.1-0.2-0.2c0-0.1,0.1-0.1,0.2-0.1
					C12.5,11.1,12.6,11.2,12.5,11.3z"/>
				<path fill="#D53F58" d="M12.6,11.1c0,0.1-0.1,0.1-0.2,0.1c-0.1,0-0.2-0.1-0.2-0.2c0-0.1,0.1-0.1,0.2-0.1
					C12.5,11,12.6,11,12.6,11.1z"/>
				<path fill="#D8465E" d="M12.4,10.8c0.1,0,0.2,0.1,0.2,0.2c0,0.1-0.1,0.1-0.2,0.1c-0.1,0-0.2-0.1-0.2-0.2
					C12.2,10.8,12.3,10.8,12.4,10.8z"/>
				<path fill="#DB4C63" d="M12.5,10.6c0.1,0,0.2,0.1,0.2,0.2c0,0.1-0.1,0.1-0.2,0.1c-0.1,0-0.2-0.1-0.2-0.2
					C12.2,10.7,12.3,10.6,12.5,10.6z"/>
				
					<ellipse transform="matrix(6.960092e-02 -0.9976 0.9976 6.960092e-02 0.9804 22.3165)" fill="#DE5269" cx="12.5" cy="10.6" rx="0.1" ry="0.2"/>
				
					<ellipse transform="matrix(6.828616e-02 -0.9977 0.9977 6.828616e-02 1.1561 22.2017)" fill="#E1586E" cx="12.5" cy="10.5" rx="0.1" ry="0.2"/>
				<path fill="#E45D73" d="M12.5,10.2c0.1,0,0.2,0.1,0.2,0.1c0,0.1-0.1,0.2-0.2,0.1c-0.1,0-0.2-0.1-0.2-0.1
					C12.3,10.3,12.4,10.2,12.5,10.2z"/>
				
					<ellipse transform="matrix(2.559047e-03 -1 1 2.559047e-03 2.2639 22.6308)" fill="#E7637A" cx="12.5" cy="10.2" rx="0.2" ry="0.2"/>
				
					<ellipse transform="matrix(1 -6.472406e-03 6.472406e-03 1 -6.465712e-02 8.096056e-02)" fill="#EA697E" cx="12.5" cy="10" rx="0.2" ry="0.2"/>
				<path fill="#ED6F83" d="M12.5,9.7c0.1,0,0.2,0,0.3,0.1c0,0.1-0.1,0.2-0.2,0.2c-0.1,0-0.2-0.1-0.2-0.1
					C12.2,9.8,12.3,9.7,12.5,9.7z"/>
				<path fill="#F07488" d="M12.4,9.6c0.1,0,0.2,0,0.3,0.1c0,0.1-0.1,0.2-0.2,0.2c-0.1,0-0.3-0.1-0.3-0.1
					C12.2,9.7,12.3,9.6,12.4,9.6z"/>
				<path fill="#F3798E" d="M12.4,9.4c0.1,0,0.3,0,0.3,0.1c0,0.1-0.1,0.2-0.2,0.2c-0.1,0-0.3,0-0.3-0.1C12.2,9.6,12.3,9.5,12.4,9.4z
					"/>
				<path fill="#F68092" d="M12.3,9.3c0.1,0,0.3,0,0.3,0.1c0,0.1-0.1,0.2-0.2,0.2c-0.1,0-0.2,0-0.3-0.1C12.1,9.4,12.2,9.3,12.3,9.3z
					"/>
				<path fill="#F98598" d="M12.3,9.1c0.1,0,0.3,0,0.3,0.1c0,0.1-0.1,0.2-0.2,0.2c-0.1,0-0.3,0-0.3-0.1C12.1,9.3,12.2,9.2,12.3,9.1z
					"/>
				<path fill="#FC8A9C" d="M12.3,9c0.1,0,0.3,0,0.3,0.1c0,0.1-0.1,0.2-0.2,0.2c-0.1,0.1-0.3,0-0.3-0.1C12,9.1,12.1,9,12.3,9z"/>
				<path fill="#FF8FA2" d="M12.3,8.8c0.1,0,0.3,0.1,0.2,0.2c0,0.1-0.1,0.1-0.2,0.2c-0.1,0-0.3,0-0.3-0.2C12,8.9,12.2,8.8,12.3,8.8z
					"/>
			</g>
			<path fill="#CF334C" d="M12.3,8.8c0.1,0,0.3,0.1,0.2,0.2c0,0.1-0.1,0.1-0.2,0.2c-0.1,0-0.3,0-0.3-0.2C12,8.9,12.2,8.8,12.3,8.8z"
				/>
		</g>
		<g>
			<g>
				<path fill="#CF334C" d="M12.7,11.4L12.7,11.4L12.7,11.4L12.7,11.4L12.7,11.4L12.7,11.4L12.7,11.4L12.7,11.4L12.7,11.4L12.7,11.4
					C12.7,11.4,12.7,11.4,12.7,11.4L12.7,11.4z"/>
				<path fill="#CF334C" d="M12.7,11.3c0.1,0,0.2,0.1,0.2,0.1c0,0,0,0,0,0L12.7,11.3C12.7,11.4,12.7,11.4,12.7,11.3L12.7,11.3
					L12.7,11.3L12.7,11.3L12.7,11.3L12.7,11.3L12.7,11.3L12.7,11.3L12.7,11.3L12.7,11.3L12.7,11.3C12.7,11.4,12.7,11.4,12.7,11.3
					c0,0.1,0,0.1,0.1,0.1c0,0.1,0.1,0.2-0.1,0.2l-0.1,0l0-0.2c0,0,0,0,0,0C12.5,11.4,12.6,11.3,12.7,11.3z"/>
				<path fill="#D23952" d="M12.7,11.2c0.1,0,0.2,0.1,0.2,0.2c0,0.1-0.1,0.1-0.2,0.1c-0.1,0-0.2-0.1-0.2-0.2
					C12.5,11.2,12.6,11.2,12.7,11.2z"/>
				
					<ellipse transform="matrix(0.1697 -0.9855 0.9855 0.1697 -0.4197 21.8017)" fill="#D53F58" cx="12.7" cy="11.1" rx="0.1" ry="0.2"/>
				<path fill="#D8465E" d="M12.8,10.8c0.1,0,0.2,0.1,0.2,0.2c0,0.1-0.1,0.1-0.2,0.1c-0.1,0-0.2-0.1-0.2-0.2
					C12.6,10.9,12.7,10.8,12.8,10.8z"/>
				<path fill="#DB4C63" d="M13,10.9c0,0.1-0.1,0.1-0.2,0.1c-0.1,0-0.2-0.1-0.2-0.2c0-0.1,0.1-0.1,0.2-0.1
					C12.9,10.7,13,10.8,13,10.9z"/>
				
					<ellipse transform="matrix(0.2981 -0.9545 0.9545 0.2981 -1.1704 19.7474)" fill="#DE5269" cx="12.8" cy="10.7" rx="0.2" ry="0.2"/>
				
					<ellipse transform="matrix(0.2992 -0.9542 0.9542 0.2992 -0.9966 19.6681)" fill="#E1586E" cx="12.9" cy="10.5" rx="0.2" ry="0.2"/>
				<path fill="#E45D73" d="M13,10.2c0.1,0.1,0.2,0.1,0.1,0.2c0,0.1-0.1,0.1-0.3,0.1c-0.1,0-0.2-0.1-0.2-0.2
					C12.8,10.2,12.9,10.1,13,10.2z"/>
				<path fill="#E7637A" d="M13.1,10.1c0.1,0.1,0.1,0.2,0.1,0.2c0,0-0.1,0.1-0.3,0.1c-0.1,0-0.2-0.1-0.1-0.2
					C12.9,10,13,10,13.1,10.1z"/>
				<path fill="#EA697E" d="M13.2,9.9c0.1,0.1,0.1,0.2,0.1,0.3c-0.1,0.1-0.2,0.1-0.3,0c-0.1,0-0.2-0.2-0.1-0.3
					C13,9.8,13.1,9.8,13.2,9.9z"/>
				
					<ellipse transform="matrix(0.5786 -0.8156 0.8156 0.5786 -2.5418 14.9335)" fill="#ED6F83" cx="13.2" cy="9.9" rx="0.2" ry="0.2"/>
				
					<ellipse transform="matrix(0.5869 -0.8097 0.8097 0.5869 -2.4435 14.7959)" fill="#F07488" cx="13.3" cy="9.8" rx="0.2" ry="0.2"/>
				
					<ellipse transform="matrix(0.5772 -0.8166 0.8166 0.5772 -2.2327 15.005)" fill="#F3798E" cx="13.4" cy="9.7" rx="0.2" ry="0.2"/>
				<path fill="#F68092" d="M13.6,9.4c0.1,0.1,0.2,0.2,0.1,0.3c-0.1,0.1-0.2,0.1-0.3,0c-0.1-0.1-0.2-0.2-0.1-0.3
					C13.3,9.3,13.4,9.3,13.6,9.4z"/>
				<path fill="#F98598" d="M13.6,9.2c0.1,0.1,0.2,0.2,0.1,0.3c-0.1,0.1-0.2,0.1-0.3,0c-0.1-0.1-0.2-0.2-0.1-0.3
					C13.4,9.2,13.5,9.2,13.6,9.2z"/>
				<path fill="#FC8A9C" d="M13.9,9.3c-0.1,0.1-0.2,0.1-0.3,0.1c-0.1-0.1-0.2-0.2-0.2-0.3c0-0.1,0.1-0.1,0.3-0.1
					C13.8,9.1,13.9,9.2,13.9,9.3z"/>
				<path fill="#FF8FA2" d="M13.5,9c0,0,0.1-0.1,0.2-0.1c0.1,0,0.1,0,0.2,0c0.1,0,0.1,0.2,0.1,0.2c0,0.2-0.2,0.2-0.3,0.1
					C13.5,9.2,13.4,9.1,13.5,9C13.4,9,13.4,9,13.5,9z"/>
			</g>
			<path fill="#CF334C" d="M13.5,9c0,0,0.1-0.1,0.2-0.1c0.1,0,0.1,0,0.2,0c0.1,0,0.1,0.2,0.1,0.2c0,0.2-0.2,0.2-0.3,0.1
				C13.5,9.2,13.4,9.1,13.5,9C13.4,9,13.4,9,13.5,9z"/>
		</g>
		<g>
			<g>
				<path fill="#CF334C" d="M12.9,11.5c0,0.1,0,0.2,0,0.2c0,0-0.1,0-0.2-0.1c-0.1-0.1-0.1-0.2,0-0.2C12.7,11.4,12.8,11.4,12.9,11.5z
					"/>
				<path fill="#D23952" d="M13,11.4c0,0.1,0,0.2-0.1,0.2c-0.1,0-0.1,0-0.2-0.1c-0.1-0.1,0-0.2,0-0.2C12.9,11.3,13,11.3,13,11.4z"/>
				<path fill="#D53F58" d="M13.2,11.4c0,0.1,0,0.2-0.1,0.2c-0.1,0-0.2,0-0.2-0.1c0-0.1,0-0.2,0.1-0.2
					C13.1,11.2,13.2,11.3,13.2,11.4z"/>
				
					<ellipse transform="matrix(0.9666 -0.2564 0.2564 0.9666 -2.4708 3.7712)" fill="#D8465E" cx="13.2" cy="11.4" rx="0.2" ry="0.2"/>
				
					<ellipse transform="matrix(0.9777 -0.2098 0.2098 0.9777 -2.077 3.063)" fill="#DB4C63" cx="13.4" cy="11.3" rx="0.2" ry="0.2"/>
				
					<ellipse transform="matrix(0.9838 -0.1793 0.1793 0.9838 -1.8037 2.6159)" fill="#DE5269" cx="13.6" cy="11.3" rx="0.2" ry="0.2"/>
				
					<ellipse transform="matrix(0.9856 -0.1691 0.1691 0.9856 -1.7055 2.4861)" fill="#E1586E" cx="13.7" cy="11.3" rx="0.2" ry="0.2"/>
				
					<ellipse transform="matrix(0.9837 -0.1798 0.1798 0.9837 -1.7913 2.6849)" fill="#E45D73" cx="13.9" cy="11.2" rx="0.2" ry="0.2"/>
				<path fill="#E7637A" d="M14,11c0.1,0,0.2,0.1,0.2,0.2c0,0.1,0,0.2-0.1,0.2c-0.1,0-0.2-0.1-0.2-0.2C13.9,11.1,13.9,11,14,11z"/>
				<path fill="#EA697E" d="M14.2,10.9c0.1,0,0.2,0.1,0.2,0.2c0,0.1,0,0.2-0.1,0.3c-0.1,0-0.2-0.1-0.2-0.2
					C14.1,11.1,14.1,11,14.2,10.9z"/>
				<path fill="#ED6F83" d="M14.4,10.9c0.1,0,0.2,0.1,0.2,0.2c0,0.1-0.1,0.2-0.2,0.3c-0.1,0-0.2-0.1-0.2-0.2
					C14.2,11,14.3,10.9,14.4,10.9z"/>
				
					<ellipse transform="matrix(0.9969 -7.840212e-02 7.840212e-02 0.9969 -0.8269 1.1794)" fill="#F07488" cx="14.6" cy="11.1" rx="0.2" ry="0.2"/>
				
					<ellipse transform="matrix(0.9981 -6.177908e-02 6.177908e-02 0.9981 -0.658 0.9344)" fill="#F3798E" cx="14.8" cy="11.1" rx="0.2" ry="0.2"/>
				
					<ellipse transform="matrix(0.9979 -6.460698e-02 6.460698e-02 0.9979 -0.6856 0.9895)" fill="#F68092" cx="15" cy="11.1" rx="0.2" ry="0.3"/>
				<path fill="#F98598" d="M15.1,10.8c0.1,0,0.2,0.1,0.2,0.2c0,0.1-0.1,0.3-0.2,0.3c-0.1,0-0.2-0.1-0.2-0.2
					C14.9,11,15,10.8,15.1,10.8z"/>
				<path fill="#FC8A9C" d="M15.3,10.8c0.1,0,0.2,0.1,0.2,0.2c0,0.1,0,0.3-0.2,0.3c-0.1,0-0.2-0.1-0.2-0.2
					C15.1,10.9,15.2,10.8,15.3,10.8z"/>
				<path fill="#FF8FA2" d="M15.4,10.8c0.1,0,0.2,0.1,0.3,0.2c0,0.1,0,0.3-0.1,0.3c-0.1,0-0.2-0.1-0.3-0.2
					C15.3,10.9,15.3,10.8,15.4,10.8z"/>
			</g>
			<path fill="#CF334C" d="M15.4,10.8c0.1,0,0.2,0.1,0.3,0.2c0,0.1,0,0.3-0.1,0.3c-0.1,0-0.2-0.1-0.3-0.2
				C15.3,10.9,15.3,10.8,15.4,10.8z"/>
		</g>
	</g>
</g>
</svg>
