<?xml version="1.0" encoding="utf-8"?>
<!-- Generator: Adobe Illustrator 21.0.0, SVG Export Plug-In . SVG Version: 6.00 Build 0)  -->
<svg version="1.1" id="Layer_1" xmlns="http://www.w3.org/2000/svg" xmlns:xlink="http://www.w3.org/1999/xlink" x="0px" y="0px"
	 viewBox="0 0 424 424" style="enable-background:new 0 0 424 424;" xml:space="preserve">
<style type="text/css">
	.st0{fill:#F8EC7D;}
	.st1{fill:#E2D574;}
	.st2{fill:#05C95D;}
	.st3{fill:#E48E66;}
</style>
<path class="st0" d="M46.8,239.1c0.3-0.2,0.6-0.4,0.9-0.5v0c14.6-8.5,28.7-17.8,42.2-28c27.6,20.7,57.6,38.1,89.4,51.7l0.6,0.3v52.2
	c0.1,15.7-4,31.2-11.8,44.8c-24.7,43.2-79.7,58.7-79.7,58.7S0,392.4,0,314.8v-52.2l0.6-0.3C16.4,255.5,31.9,247.7,46.8,239.1z"/>
<path class="st1" d="M341.6,76.1h-67l-37.3-37.3v0l33.6-33.6l70.7,70.7V76.1z"/>
<path class="st1" d="M424,174.3v87.2h-89.2c-24.1,0-43.6-19.5-43.6-43.6s19.5-43.6,43.6-43.6H424z"/>
<path class="st2" d="M137,76.1h230.5c22.1,0,40,17.9,40,40v58.1h-72.7c-24.1,0-43.6,19.5-43.6,43.6s19.5,43.6,43.6,43.6h72.7v58.1
	c0,22.1-17.9,40-40,40H168.1c7.8-13.6,11.9-29.1,11.8-44.8v-52.2l-0.6-0.3c-31.7-13.6-61.7-31-89.4-51.7
	c-13.5,10.1-27.6,19.5-42.2,28V116.1c0-22.1,17.9-40,40-40H137z"/>
<path class="st0" d="M274.6,76.1H137l68.8-68.8L274.6,76.1z"/>
<g>
	<path class="st3" d="M89.9,386.5c-3.3,0-6-2.7-6-6V375c0-3.3,2.7-6,6-6s6,2.7,6,6v5.5C95.9,383.8,93.3,386.5,89.9,386.5z"/>
	<path class="st3" d="M107.8,386.5c-3.3,0-6-2.7-6-6V375c0-3.3,2.7-6,6-6c3.3,0,6,2.7,6,6v5.5C113.8,383.8,111.1,386.5,107.8,386.5z
		"/>
	<path class="st3" d="M125.7,386.5c-3.3,0-6-2.7-6-6V375c0-3.3,2.7-6,6-6c3.3,0,6,2.7,6,6v5.5C131.7,383.8,129,386.5,125.7,386.5z"
		/>
	<path class="st3" d="M143.6,386.5c-3.3,0-6-2.7-6-6V375c0-3.3,2.7-6,6-6c3.3,0,6,2.7,6,6v5.5C149.6,383.8,146.9,386.5,143.6,386.5z
		"/>
	<path class="st3" d="M72.1,386.5c-3.3,0-6-2.7-6-6V375c0-3.3,2.7-6,6-6c3.3,0,6,2.7,6,6v5.5C78.1,383.8,75.4,386.5,72.1,386.5z"/>
	<path class="st3" d="M54.2,386.5c-3.3,0-6-2.7-6-6V375c0-3.3,2.7-6,6-6s6,2.7,6,6v5.5C60.2,383.8,57.5,386.5,54.2,386.5z"/>
	<path class="st3" d="M36.3,386.5c-3.3,0-6-2.7-6-6V375c0-3.3,2.7-6,6-6s6,2.7,6,6v5.5C42.3,383.8,39.6,386.5,36.3,386.5z"/>
	<path class="st3" d="M82.2,338.3c-1.6,0-3.1-0.6-4.2-1.8l-20.4-20.4c-1.6-1.5-2.2-3.7-1.7-5.8c0.5-2.1,2.2-3.8,4.3-4.3
		c2.1-0.5,4.3,0.1,5.8,1.7l16.1,16.1l31.6-31.6c2.4-2.3,6.1-2.3,8.4,0.1c2.3,2.3,2.3,6.1,0.1,8.4l-35.8,35.8
		C85.3,337.7,83.8,338.3,82.2,338.3z"/>
	<path class="st3" d="M336.4,240.2c-12.3,0-22.3-10-22.3-22.3c0-12.3,10-22.3,22.3-22.3c12.3,0,22.3,10,22.4,22.3
		C358.8,230.2,348.8,240.2,336.4,240.2z M336.4,207.5c-5.7,0-10.4,4.6-10.4,10.4c0,5.7,4.6,10.4,10.4,10.4c5.7,0,10.4-4.6,10.4-10.4
		C346.8,212.1,342.1,207.5,336.4,207.5z"/>
</g>
</svg>
