<?xml version="1.0" encoding="utf-8"?>
<!-- Generator: Adobe Illustrator 22.0.1, SVG Export Plug-In . SVG Version: 6.00 Build 0)  -->
<svg version="1.1" id="Layer_1" xmlns="http://www.w3.org/2000/svg" xmlns:xlink="http://www.w3.org/1999/xlink" x="0px" y="0px"
	 viewBox="0 0 300 300" style="enable-background:new 0 0 300 300;" xml:space="preserve">
<style type="text/css">
	.st0{fill:#C1E8CC;}
	.st1{fill:#99D9AC;}
	.st2{fill:none;stroke:#00A550;stroke-miterlimit:10;}
	.st3{fill:#C1E8CC;stroke:#00A550;stroke-miterlimit:10;}
	.st4{fill:#00A550;stroke:#00A550;stroke-miterlimit:10;}
	.st5{fill:#00A550;}
	.st6{fill:#FFFFFF;}
	.st7{fill:#FFD117;}
	.st8{fill:#007237;}
	.st9{fill:#504B5A;}
</style>
<g>
	<circle class="st0" cx="149.8" cy="150.4" r="145"/>
	<circle class="st1" cx="75.4" cy="30.4" r="20.8"/>
	<circle class="st1" cx="233.2" cy="271.7" r="10.4"/>
	<line class="st2" x1="14.9" y1="179.5" x2="66.5" y2="180.1"/>
	<line class="st2" x1="238.8" y1="183" x2="289.2" y2="183"/>
	<g>
		<rect x="46.2" y="135.9" class="st3" width="12.8" height="43.1"/>
		<g>
			
				<rect x="43.9" y="141" transform="matrix(0.9999 1.715376e-02 -1.715376e-02 0.9999 2.4814 -0.7733)" class="st4" width="4.9" height="6.6"/>
			
				<rect x="50.4" y="141.1" transform="matrix(0.9999 1.715376e-02 -1.715376e-02 0.9999 2.4843 -0.8862)" class="st4" width="4.9" height="6.6"/>
			
				<rect x="43.7" y="149.2" transform="matrix(0.9999 1.715376e-02 -1.715376e-02 0.9999 2.6224 -0.7697)" class="st4" width="4.9" height="6.6"/>
			
				<rect x="50.3" y="149.3" transform="matrix(0.9999 1.715376e-02 -1.715376e-02 0.9999 2.6253 -0.8825)" class="st4" width="4.9" height="6.6"/>
			
				<rect x="43.6" y="157.4" transform="matrix(0.9999 1.715376e-02 -1.715376e-02 0.9999 2.7634 -0.7661)" class="st4" width="4.9" height="6.6"/>
			
				<rect x="50.1" y="157.5" transform="matrix(0.9999 1.715376e-02 -1.715376e-02 0.9999 2.7663 -0.8789)" class="st4" width="4.9" height="6.6"/>
			
				<rect x="43.4" y="165.6" transform="matrix(0.9999 1.715376e-02 -1.715376e-02 0.9999 2.9044 -0.7625)" class="st4" width="4.9" height="6.6"/>
			
				<rect x="50" y="165.7" transform="matrix(0.9999 1.715376e-02 -1.715376e-02 0.9999 2.9073 -0.8753)" class="st4" width="4.9" height="6.6"/>
		</g>
		<rect x="26.7" y="129.1" class="st3" width="19.4" height="49.9"/>
		<g>
			<rect x="29.1" y="133.3" class="st5" width="6.3" height="8.4"/>
			<rect x="37.5" y="133.3" class="st5" width="6.3" height="8.4"/>
			<rect x="29.1" y="143.8" class="st5" width="6.3" height="8.4"/>
			<rect x="37.5" y="143.8" class="st5" width="6.3" height="8.4"/>
			<rect x="29.1" y="154.3" class="st5" width="6.3" height="8.4"/>
			<rect x="37.5" y="154.3" class="st5" width="6.3" height="8.4"/>
			<rect x="29.1" y="164.8" class="st5" width="6.3" height="8.4"/>
			<rect x="37.5" y="164.8" class="st5" width="6.3" height="8.4"/>
		</g>
	</g>
	<g>
		
			<ellipse transform="matrix(1 -4.475330e-03 4.475330e-03 1 -0.6257 0.9799)" class="st1" cx="218.6" cy="140.3" rx="52" ry="37.5"/>
		<path class="st1" d="M141.5,92c26.6-0.1,60.7,16.5,60.8,42.7s-27.1,47.3-53.7,47.4s-42.5-20.8-42.6-47S114.9,92.2,141.5,92z"/>
	</g>
	<ellipse class="st1" cx="151.2" cy="245.1" rx="75.4" ry="8.1"/>
	<g>
		<g>
			<path class="st5" d="M140.7,23.5c1.2-0.4,2.3-0.5,3.5-0.5c1.2,0,2.3,0.1,3.5,0.5c-1.2,0.4-2.3,0.5-3.5,0.5
				C143.1,24,141.9,23.9,140.7,23.5z"/>
		</g>
		<g>
			<path class="st5" d="M144.3,20c0.1,1,0.3,2,0.4,2.9c0,0.5,0.2,1,0.1,1.5c-0.1,0.5-0.2,1-0.5,1.5h-0.1c-0.3-0.5-0.4-1-0.4-1.5
				c-0.1-0.5,0.1-1,0.1-1.5C143.9,21.9,144,20.9,144.3,20L144.3,20z"/>
		</g>
	</g>
	<g>
		<g>
			<path class="st5" d="M180.2,99.8c1.2-0.4,2.3-0.5,3.5-0.5c1.2,0,2.3,0.1,3.5,0.5c-1.2,0.4-2.3,0.5-3.5,0.5
				C182.5,100.3,181.3,100.2,180.2,99.8z"/>
		</g>
		<g>
			<path class="st5" d="M183.7,94.2c0.1,1.6,0.3,3.1,0.4,4.7c0,0.8,0.2,1.6,0.1,2.3c-0.1,0.8-0.2,1.6-0.4,2.3h-0.1
				c-0.3-0.8-0.4-1.6-0.5-2.3c-0.1-0.8,0.1-1.6,0.1-2.3C183.4,97.3,183.5,95.8,183.7,94.2L183.7,94.2z"/>
		</g>
	</g>
	<line class="st2" x1="228.3" y1="134.3" x2="263.7" y2="134.3"/>
	<line class="st2" x1="222.5" y1="141.2" x2="257.9" y2="141.2"/>
	<line class="st2" x1="250.4" y1="191.1" x2="271.2" y2="191.1"/>
	<g>
		<g>
			<path class="st5" d="M133.4,74.9c1.2-0.4,2.3-0.5,3.5-0.5c1.2,0,2.3,0.1,3.5,0.5c-1.2,0.4-2.3,0.5-3.5,0.5
				C135.7,75.4,134.6,75.3,133.4,74.9z"/>
		</g>
		<g>
			<path class="st5" d="M137,69.3c0.1,1.6,0.3,3.1,0.3,4.7c0,0.8,0.2,1.6,0.1,2.3c-0.1,0.8-0.2,1.6-0.4,2.3h-0.1
				c-0.3-0.8-0.4-1.6-0.4-2.3c-0.1-0.8,0.1-1.6,0.1-2.3c0.1-1.6,0.2-3.1,0.3-4.7H137z"/>
		</g>
	</g>
	<circle class="st1" cx="167" cy="44.3" r="10.4"/>
	<g>
		<g>
			<path class="st5" d="M105.9,41.8c1.2-0.4,2.3-0.5,3.5-0.5c1.2,0,2.3,0.1,3.5,0.5c-1.2,0.4-2.3,0.5-3.5,0.5
				C108.3,42.3,107.1,42.2,105.9,41.8z"/>
		</g>
		<g>
			<path class="st5" d="M109.5,36.2c0.1,1.6,0.3,3.1,0.3,4.7c0,0.8,0.2,1.6,0.1,2.3c-0.1,0.8-0.2,1.6-0.5,2.3h-0.1
				c-0.3-0.8-0.4-1.6-0.4-2.3c-0.1-0.8,0.1-1.6,0.1-2.3C109.1,39.3,109.2,37.8,109.5,36.2L109.5,36.2z"/>
		</g>
	</g>
	<g>
		<g>
			<path class="st5" d="M90.3,105.3c1.2-0.4,2.3-0.5,3.5-0.5c1.2,0,2.3,0.1,3.5,0.5c-1.2,0.4-2.3,0.5-3.5,0.5
				C92.6,105.8,91.5,105.7,90.3,105.3z"/>
		</g>
		<g>
			<path class="st5" d="M93.8,99.7c0.1,1.6,0.3,3.1,0.3,4.7c0,0.8,0.2,1.6,0.1,2.3c-0.1,0.8-0.2,1.6-0.4,2.3h-0.1
				c-0.3-0.8-0.4-1.6-0.5-2.3c-0.1-0.8,0.1-1.6,0.1-2.3C93.5,102.8,93.6,101.3,93.8,99.7L93.8,99.7z"/>
		</g>
	</g>
	<g>
		<path class="st5" d="M205.1,33.5h-26.5c-2.3,0-4.1,1.9-4.1,4.1v4.2h23.7c3,0,5.5,2.5,5.5,5.5v9.1h1.4c2.3,0,4.1-1.9,4.1-4.1V37.6
			C209.2,35.3,207.3,33.5,205.1,33.5z"/>
		<path class="st3" d="M198.1,43.2h-26.5c-2.3,0-4.1,1.9-4.1,4.1v14.7c0,2.3,1.9,4.1,4.1,4.1h4.2v7c0,0.3,0.2,0.5,0.4,0.6
			c0.1,0,0.2,0,0.3,0c0.2,0,0.4-0.1,0.5-0.2l6.8-7.4h14.4c2.3,0,4.1-1.9,4.1-4.1V47.3C202.2,45.1,200.4,43.2,198.1,43.2z
			 M175.8,50.2h9.7c0.4,0,0.7,0.3,0.7,0.7s-0.3,0.7-0.7,0.7h-9.7c-0.4,0-0.7-0.3-0.7-0.7S175.4,50.2,175.8,50.2z M194.6,59.9h-18.8
			c-0.4,0-0.7-0.3-0.7-0.7c0-0.4,0.3-0.7,0.7-0.7h18.8c0.4,0,0.7,0.3,0.7,0.7C195.3,59.6,195,59.9,194.6,59.9z M194.6,55.8h-18.8
			c-0.4,0-0.7-0.3-0.7-0.7c0-0.4,0.3-0.7,0.7-0.7h18.8c0.4,0,0.7,0.3,0.7,0.7C195.3,55.4,195,55.8,194.6,55.8z"/>
	</g>
	<g>
		<g>
			<g>
				<g>
					<path class="st5" d="M206.3,60.4c-0.1-0.4-0.5-0.7-0.9-0.7l-3.3-0.5l-1.5-3.1c-0.2-0.4-0.6-0.6-1-0.6c-0.4,0-0.8,0.2-1,0.6
						l-1.5,3.1l-3.4,0.5c-0.4,0-0.7,0.3-0.9,0.7c-0.1,0.4,0,0.8,0.3,1.1l2.5,2.3l-0.6,3.3c-0.1,0.4,0.1,0.8,0.4,1
						c0.3,0.3,0.8,0.3,1.1,0.1l3-1.6l3,1.6c0.4,0.2,0.8,0.2,1.1-0.1c0.3-0.2,0.5-0.6,0.4-1l-0.6-3.3l2.4-2.3
						C206.3,61.2,206.4,60.8,206.3,60.4z"/>
					<path class="st5" d="M229.3,60.4c-0.1-0.4-0.5-0.7-0.9-0.7l-3.4-0.5l-1.5-3.1c-0.2-0.4-0.6-0.6-1-0.6c-0.4,0-0.8,0.2-1,0.6
						l-1.5,3.1l-3.3,0.5c-0.4,0-0.7,0.3-0.9,0.7c-0.1,0.4,0,0.8,0.3,1.1l2.4,2.3l-0.6,3.3c-0.1,0.4,0.1,0.8,0.4,1
						c0.3,0.3,0.8,0.3,1.1,0.1l3-1.6l3,1.6c0.4,0.2,0.8,0.2,1.1-0.1c0.3-0.2,0.5-0.6,0.4-1l-0.6-3.3l2.5-2.3
						C229.3,61.2,229.4,60.8,229.3,60.4z"/>
					<path class="st5" d="M217.8,60.4c-0.1-0.4-0.5-0.7-0.9-0.7l-3.3-0.5l-1.5-3.1c-0.2-0.4-0.6-0.6-1-0.6s-0.8,0.2-1,0.6l-1.5,3.1
						l-3.3,0.5c-0.4,0-0.7,0.3-0.9,0.7c-0.1,0.4,0,0.8,0.3,1.1l2.4,2.3l-0.6,3.3c-0.1,0.4,0.1,0.8,0.4,1c0.3,0.3,0.8,0.3,1.1,0.1
						l3-1.6l3,1.6c0.4,0.2,0.8,0.2,1.1-0.1c0.3-0.2,0.5-0.6,0.4-1l-0.6-3.3l2.4-2.3C217.8,61.2,217.9,60.8,217.8,60.4z"/>
				</g>
				<g>
					<path class="st3" d="M239.9,77.1l0,6.5c0,0.6-0.1,1.1-0.3,1.7l-1.9,5.8c-0.1,0.4-0.5,0.7-1,0.7l-15,0.1c-0.4,0-0.8-0.3-1-0.7
						l-3.4-8.3c-0.8-1.9-0.4-3.9,0.9-5.5l2.3-2.7l0-8.2c0-1.3,1-2.4,2.4-2.4c0.3,0,0.6,0,0.9,0.1c0.9,0.3,1.6,1.2,1.6,2.2l0,6.4
						c0-1.2,0.9-2.3,2.2-2.4c1.4-0.1,2.6,1,2.6,2.4l0,2.1c0-1.3,1.1-2.4,2.4-2.4c1.4,0,2.4,1.1,2.4,2.4l0,2.1c0-1.4,1.3-2.6,2.8-2.4
						C239,74.9,239.9,76,239.9,77.1z"/>
				</g>
			</g>
			<rect x="220.2" y="91.9" class="st5" width="18.2" height="4"/>
		</g>
		<path class="st5" d="M240.9,60.4c-0.1-0.4-0.5-0.7-0.9-0.7l-3.4-0.5l-1.5-3.1c-0.2-0.4-0.6-0.6-1-0.6s-0.8,0.2-1,0.6l-1.5,3.1
			l-3.3,0.5c-0.4,0-0.7,0.3-0.9,0.7c-0.1,0.4,0,0.8,0.3,1.1l2.4,2.3l-0.6,3.3c-0.1,0.4,0.1,0.8,0.4,1c0.3,0.3,0.8,0.3,1.1,0.1l3-1.6
			l3,1.6c0.4,0.2,0.8,0.2,1.1-0.1c0.3-0.2,0.5-0.6,0.4-1l-0.6-3.3l2.5-2.3C240.9,61.2,241,60.8,240.9,60.4z"/>
		<path class="st5" d="M252.5,60.4c-0.1-0.4-0.5-0.7-0.9-0.7l-3.4-0.5l-1.5-3.1c-0.2-0.4-0.6-0.6-1-0.6c-0.4,0-0.8,0.2-1,0.6
			l-1.5,3.1l-3.3,0.5c-0.4,0-0.7,0.3-0.9,0.7c-0.1,0.4,0,0.8,0.3,1.1l2.4,2.3l-0.6,3.3c-0.1,0.4,0.1,0.8,0.4,1
			c0.3,0.3,0.8,0.3,1.1,0.1l3-1.6l3,1.6c0.4,0.2,0.8,0.2,1.1-0.1c0.3-0.2,0.5-0.6,0.4-1l-0.6-3.3l2.5-2.3
			C252.5,61.2,252.6,60.8,252.5,60.4z"/>
	</g>
	<g>
		<path class="st5" d="M225.1,165.1l-8.2-5.7l-7.5-32.9c-1.8-7.9-8.8-13.5-16.9-13.5h-84.8c-8.1,0-15.1,5.6-16.9,13.5l-7.5,32.9
			l-8.2,5.7c-5.4,3.8-8.7,10-8.7,16.6v29.6c0,5.5,4.5,10,10,10h147.6c5.5,0,10-4.5,10-10v-29.6C233.8,175.1,230.6,168.9,225.1,165.1
			z"/>
		<path class="st6" d="M207.2,159.5H92.5l7.1-30.9c0.8-3.7,4.1-6.2,7.8-6.2h85c3.8,0,7,2.6,7.8,6.2L207.2,159.5z"/>
		<g>
			<g>
				<path class="st7" d="M79.4,186.7c0,5.6,5.9,10.2,13.1,10.2c7.3,0,13.1-4.6,13.1-10.2H79.4z"/>
			</g>
			<g>
				<path class="st7" d="M194,186.7c0,5.6,5.9,10.2,13.1,10.2s13.1-4.6,13.1-10.2H194z"/>
			</g>
		</g>
		<path class="st8" d="M230.1,206.8H69.6c-3.9,0-7.1,3.1-7.1,7l0,0c0,3.9,3.2,7,7.1,7h160.6c3.9,0,7.1-3.1,7.1-7l0,0
			C237.2,209.9,234.1,206.8,230.1,206.8z"/>
		<path class="st9" d="M75.3,221.3v17.2c0,2.3,1.9,4.1,4.1,4.1h16c2.3,0,4.1-1.9,4.1-4.1v-17.2"/>
		<path class="st9" d="M200.1,221.3v17.2c0,2.3,1.9,4.1,4.1,4.1h16c2.3,0,4.1-1.9,4.1-4.1v-17.2"/>
		<path class="st9" d="M177.1,220.8v2.3c0,5.1-4.1,9.3-9.3,9.3h-30.1c-5.1,0-9.3-4.1-9.3-9.3v-2.3"/>
		<path class="st6" d="M207.2,159.5h-39.5l-37.1-37.1h61.7c3.8,0,7,2.6,7.8,6.2L207.2,159.5z"/>
		<rect x="119.6" y="183.8" class="st8" width="64.4" height="5.1"/>
		<rect x="119.6" y="192.7" class="st8" width="64.4" height="5.1"/>
	</g>
	<g>
		<g>
			<path class="st5" d="M70.4,72.1c0.8-0.4,1.7-0.5,2.5-0.5c0.8,0,1.7,0.1,2.5,0.5c-0.8,0.4-1.7,0.5-2.5,0.5
				C72.1,72.5,71.3,72.5,70.4,72.1z"/>
		</g>
		<g>
			<path class="st5" d="M73,68c0.1,1.1,0.3,2.3,0.3,3.4c0,0.6,0.2,1.1,0.1,1.7c-0.1,0.6-0.2,1.1-0.4,1.7h-0.1
				c-0.3-0.6-0.4-1.1-0.4-1.7c-0.1-0.6,0.1-1.1,0.1-1.7c0.1-1.1,0.2-2.3,0.3-3.4H73z"/>
		</g>
	</g>
	<g>
		<g>
			<path class="st5" d="M36.3,111.3c1.2-0.4,2.3-0.5,3.5-0.5c1.2,0,2.3,0.1,3.5,0.5c-1.2,0.4-2.3,0.5-3.5,0.5
				C38.6,111.8,37.5,111.7,36.3,111.3z"/>
		</g>
		<g>
			<path class="st5" d="M39.8,105.7c0.1,1.6,0.3,3.1,0.3,4.7c0,0.8,0.2,1.6,0.1,2.3c-0.1,0.8-0.2,1.6-0.4,2.3h-0.1
				c-0.3-0.8-0.4-1.6-0.5-2.3c-0.1-0.8,0.1-1.6,0.1-2.3C39.5,108.8,39.6,107.3,39.8,105.7L39.8,105.7z"/>
		</g>
	</g>
</g>
</svg>
